a1,b1,c1,d1,a2,b2,c2,d2
-7.036791135113366e-09,2.101408883792021e-06,-0.00029733604888097467,0.4140137726370046,1.4184521715135164e-08,-1.3928470701755968e-05,0.004568855054004359,-0.09030028949079012
-1.1115337299755115e-10,-4.62607662172641e-07,0.0002785582247066784,0.411401911916279,2.7196117212267087e-10,-9.849580284064726e-07,0.0011586794597060982,-0.06667614049138408
3.0849632314236476e-10,-2.5872990213227124e-07,-8.865076775399634e-05,0.3829837260950828,-2.0265734161999946e-10,6.057402400816442e-07,-0.0005641439686374884,0.4745616125714387
-3.727183895408043e-10,5.053719166501553e-07,-0.00017179511241019116,0.3182395662851833,5.40674420589893e-10,-1.6828146668996416e-06,0.0017675811849563678,-0.28570826250424847
-1.2468576195940284e-09,1.271562663966556e-06,-0.00026747098739384807,0.3773994970973557,9.871067551191533e-10,-3.5956348681334037e-06,0.004222809897429216,-1.1570527151128114
-5.643465627084432e-10,4.1432855147857247e-07,-9.559123154966733e-05,0.41840019847780124,3.022650919487108e-09,-7.063041158644292e-06,0.005481045539855712,-0.9813413922996383
2.6565401993183707e-08,-9.44836560627815e-06,0.0009287439207457216,0.44383598634960775,-5.2578968663942954e-09,5.673769259494144e-06,-0.002079091583867394,0.7040103045262204
-2.7436731957075334e-10,3.282190802308509e-07,-0.0001532402725258279,0.45310070760552756,1.4475213042211902e-10,-2.4607373772176666e-07,6.632815116926797e-07,0.5031847804958229
4.2568948479743715e-10,-4.4635753301263697e-07,5.664725248124751e-05,0.4203426113519981,8.781282386752709e-10,-2.9682974801571917e-06,0.003239856574990936,-0.7509319114967061
2.515356484423471e-10,-5.297106257674627e-08,-5.383599050618332e-05,0.38303237270118035,1.2112117038872059e-10,-5.072328765674666e-07,0.0007012964894041355,0.10238118499522181
-9.976944376029208e-10,7.234292698979738e-07,-5.6019952581492866e-05,0.4147803121150677,6.992753915291782e-11,-1.659680774018613e-07,0.00013617795096756426,0.36268659700850897
-8.296270414682388e-10,6.577993101270653e-07,-7.841773012588845e-05,0.4203803126624846,-2.6509913759942496e-11,-3.2700511003806535e-07,0.0004721073742637578,0.3183932504279449
-1.3732430719959465e-08,3.472817803489411e-06,-0.00021485531950379263,0.45006341696611896,6.574690322979883e-09,-6.081622047103631e-06,0.0017784128388814596,0.2688754745362557
-3.3061582654405184e-10,3.268715107612198e-07,-8.275907303209374e-05,0.43155638491246273,1.4377136424815576e-10,-4.819588641304964e-07,0.000523244278237584,0.2439843212065274
1.9055709362565833e-10,-3.846633482892122e-08,-4.2084803746945754e-05,0.42074130464069975,3.4653798261102344e-10,-9.476911583552609e-07,0.000834883019391441,0.21177484953149675
5.042649417639374e-10,-5.004185766892466e-07,5.2157251564100174e-05,0.47738759894688254,1.2995837356686462e-10,-2.6720593211795133e-07,7.007763290266103e-05,0.4908205424680955
4.865922491962412e-10,-8.234541807413974e-07,0.000260503663626256,0.41813354674201264,1.0866555035807413e-09,-3.7451858170561514e-06,0.004170923378705088,-1.0946160390442974
-1.4726744998472694e-09,8.644334320439422e-07,-0.0001108988842667284,0.3823460887400186,1.663711400496885e-09,-3.899071799940589e-06,0.0029385378541176947,-0.35007049192182343
1.9538252162832338e-09,-4.138760900365491e-07,3.3955066076483114e-05,0.34851200504492624,-8.338587138206462e-09,7.67748772469382e-06,-0.0022663209561114912,0.5757637634167063
6.616404092295454e-11,-4.8562729557033846e-08,2.6587854481759114e-05,0.3651237620063483,8.639129250567386e-11,-3.747018854041813e-07,0.0005222573496441565,0.15901797451153885
7.586489205560351e-10,-7.224851753133846e-07,0.0001408784015999089,0.39131912139187136,1.217172684575033e-10,-4.6462766264669445e-07,0.0005917935932216452,0.15233399411604148
-5.036300909225894e-10,4.7019725493392334e-07,-7.813531632662456e-05,0.4059502808228023,3.8128148306651086e-10,-1.3797653204301706e-06,0.0016318609738469171,-0.20021129895021766
1.9061434787572995e-10,-1.569847428044302e-07,9.963327325328755e-05,0.41221278930034155,2.3058623417463074e-10,-7.339404035287947e-07,0.0007240510943029873,0.2491914146159202
-1.486052385157522e-09,1.380877020400859e-06,-0.0003442271321860414,0.45739042858343826,-2.579436440725917e-09,6.307873297804427e-06,-0.005058245082439689,1.7074318535806554
-4.237893293878066e-09,2.56788418997911e-06,-0.0003283966755464229,0.38512440318448793,-2.9283025618495917e-09,2.524514906504791e-06,-0.0006585480240960382,0.4403981713187393
-3.657605694156312e-10,4.43771471101155e-07,-8.580077653002343e-05,0.39512513701547547,6.169114602368465e-11,-1.4404518088539897e-07,0.00010729361018161872,0.40284878921504624
-6.435167760221421e-10,6.335951652600691e-07,-0.00014022924252236562,0.4453633173733683,-1.9138165906116907e-10,5.379308912964292e-07,-0.0004638208414068826,0.5668693111847349
8.114169170975976e-10,-3.408208129005178e-07,1.7202623944815084e-05,0.4487228500773947,7.603460069623321e-10,-2.601805493138545e-06,0.0028969534917646558,-0.45938166023420707
-1.1322410240846514e-09,9.268972148749044e-07,1.928248384219803e-05,0.5722683288145151,2.7914628863627114e-10,-9.730886058236507e-07,0.0010942885644761387,0.2780907917419448
4.593489969092917e-10,-2.99047586771518e-07,4.9821514054421124e-05,0.664419829255431,-1.2348597519900573e-09,3.180330822304636e-06,-0.0026299709114156362,1.3220510648517596
8.757770656012045e-09,-2.5028805026960425e-06,0.00016627148072230333,0.6255722316250231,-5.347025221439682e-09,5.2364062239782e-06,-0.0017270350833678305,0.8124366999053467
2.0292841106957914e-09,-2.1464094248095405e-06,0.000591648085666377,0.59318461015554,3.838373552748426e-10,-1.2986640913203646e-06,0.0014785840913552795,0.10609126294125347
-5.953840165237849e-10,1.0617062941979257e-06,-0.0003485383925864398,0.6912003456344958,-6.020923420870832e-10,2.065489369764056e-06,-0.0023227959503840747,1.600394109074107
-2.849029314946158e-10,2.4447036260352665e-07,-0.00014095479135060724,0.751645382635554,2.1789612701068563e-10,-9.075567902840261e-07,0.0012385778968903676,0.18933891667997996
1.7478352119505612e-10,-2.1804405884118023e-07,0.0001457964940006803,0.7353722953644195,-2.210223675703579e-10,7.587386118971837e-07,-0.0009012360462276009,1.1316950254223173
5.828600786590804e-10,-4.6520269026173734e-07,4.304361965119731e-05,0.7516706258338786,-3.300493005687536e-11,2.5890259078935127e-07,-0.0003231115015614567,0.8140633700795805
3.4001532899216255e-09,1.5892687505017574e-07,-0.00020901861567551794,0.7085971573846758,1.942350513035052e-09,-1.249280569039269e-06,0.00015560055110504033,0.6999538728664103
-2.279213621009696e-10,1.3479485921894349e-07,-8.140340231513716e-05,0.6908718042965777,-4.634248945379166e-10,1.4032813003342965e-06,-0.001354264022417965,1.0524656543015134
-6.761510748918864e-11,-1.3844471492860872e-07,0.00012167160300074249,0.6280346793023232,4.0586292380627326e-10,-1.2348936709828334e-06,0.001230834515754202,0.2218484411481558
4.3698191197285094e-10,-3.928763635196239e-07,2.5088342824755262e-05,0.6458595641382361,-9.16840684073391e-11,4.040074771044382e-07,-0.0005464170912718062,0.849125948110018
8.629325847381045e-10,-9.42894279463305e-07,0.000196062401663833,0.6164885358666725,-2.3515957771456323e-10,8.186014687511788e-07,-0.0008948821868558812,0.9062414804077715
1.048290371693003e-09,-6.26546247931383e-07,3.2995890499624084e-05,0.6107669437273168,3.619123093683644e-10,-1.1442849488026711e-06,0.0011717989055571234,0.2257654950918741
-4.561404108368941e-09,7.932780077944152e-07,-2.0821638407010632e-05,0.6068964230900452,8.35078061498427e-09,-8.109225456735629e-06,0.0025408579263156233,0.346114435938215
9.466110867900251e-10,-9.337185259543498e-07,9.714217057709409e-05,0.5995799944816385,3.533000207048366e-11,-1.0597444013260636e-07,0.0001358074013163795,0.4687794168331612
4.752845760348086e-10,-3.348138938263139e-07,-1.7916022478600598e-05,0.5477210317559048,6.861081044158234e-11,-1.9240307142386264e-07,0.000167695014253293,0.48149675078082627
7.227572965364497e-10,-4.200646386213428e-07,-3.402294716704413e-05,0.5290801367401868,-9.763884460383054e-11,4.041630822727487e-07,-0.0005184709192744108,0.7348028253046911
-4.5419542327071845e-11,1.1543672767540714e-07,-6.644619259576934e-05,0.5400235718157466,7.722562334893906e-11,-1.0831514812094387e-07,-1.8253782265536977e-06,0.5681850694191918
9.657839558927776e-10,-4.865014300445021e-07,-6.512864635715387e-05,0.5663210095159096,-6.416708776301571e-10,1.977150904218285e-06,-0.0019374101268872864,1.0666550543778586
2.255465751802758e-09,-7.129960731608012e-07,9.524348431865076e-05,0.4470655493288163,1.1010756373658367e-08,-1.0052611047435957e-05,0.002953410388095952,0.1770414578202914
5.344862087673361e-10,-5.708128495121223e-07,6.0278619934784125e-05,0.4659485894110005,1.1414585649356769e-10,-4.176318045589642e-07,0.0005044721787518391,0.21867866407868777
-4.187542770593179e-10,4.1368374992554155e-07,-0.00013676519521040736,0.42695866083136874,1.0608523653022937e-10,-4.6893785584253665e-07,0.0006389140057097253,0.13507180221787826
1.3820995469078904e-10,-2.4296614100525435e-07,7.6594037332446e-05,0.3985160294605047,1.4370228452849834e-10,-5.775118409636151e-07,0.0007425917790268048,0.10103935425125073
1.8396981933359749e-10,-3.250709416958801e-08,3.7295587815200765e-05,0.3989494653901891,5.473995550035559e-10,-1.8239522230984708e-06,0.001965089379597114,-0.2083952339805493
-1.6826185231421344e-09,1.3756796025812005e-06,-0.00024596047202531655,0.4809914729805885,4.34482503881897e-09,-1.0280052096386758e-05,0.007956828236086165,-1.497258741231863
1.9760517419992185e-09,-4.479118529421536e-07,2.1922547362203242e-05,0.5075532252008504,6.208524455454701e-10,-6.830418535584364e-07,0.0002451693919754446,0.47603779799567036
2.393281898570805e-10,2.2632431898254848e-08,-0.0001450131644025313,0.5127845267036611,-1.956832149295297e-10,6.5412399025703e-07,-0.0007026333578966755,0.7671748920744554
3.319968751091605e-10,-2.6979587020216437e-07,5.973431735110272e-05,0.5276642758366653,-1.7368554493767665e-10,4.893745797793091e-07,-0.00048826987977408805,0.6892046758869523
1.0471571948590674e-09,-9.24925251674514e-07,0.00019418756648286543,0.4854079155030316,1.8034406841729975e-11,-5.5879203330357494e-09,-0.0001126757755681054,0.614059913709603
3.3150924246371017e-09,-2.653120074533011e-06,0.0005049141515733228,0.47493369217292697,-2.910601971402269e-11,7.359868003455149e-08,-8.035493761012746e-05,0.6970839754341748
2.1877412536985314e-09,-1.4354421772840737e-06,7.001028558682211e-05,0.6491624425076064,1.5127495100470102e-09,-3.95170848952572e-06,0.003365337407185037,-0.2946191993551692
-3.774198617172934e-09,-5.884088415114168e-07,0.0003549253323647858,0.6182274614962073,-4.175080285815193e-09,4.021897907825039e-06,-0.0012480900615203482,0.7609983809460734
1.7057522339998805e-10,-9.237713619372216e-08,-8.977429535297688e-05,0.6474155818241131,-2.6345701909185836e-10,8.983940724130019e-07,-0.0009870518653393148,0.9416204447951244
-3.867608522340787e-14,6.050221142256162e-08,-4.899283887545613e-05,0.6008839295588619,-7.39197599303854e-12,-9.67572860240717e-09,3.9729766359997555e-05,0.576351997087598
-2.476768245781047e-10,2.121395988897178e-07,-7.721887380207016e-05,0.5947137305675115,1.782440617663736e-09,-6.36361902086233e-06,0.007505332827321246,-2.2378510336713986
-8.234063774278406e-10,6.075110291645429e-07,7.939861904479374e-05,0.6787256673899718,-1.5887781613524858e-10,5.738830806495256e-07,-0.0006703690179597159,1.0178027030101882
1.6890482091179326e-09,-1.0112180780227902e-06,4.242580266851752e-05,0.7633679772523746,1.563577338632962e-09,-3.5935308499593745e-06,0.0026559628265104378,0.1064755900812175
5.0304285236974634e-09,-1.5350370815807777e-06,0.00017103218863316044,0.7223532473150164,-3.5465628149473123e-09,2.6777350902092754e-06,-0.0006210320126920171,0.7769441982582787
-6.518137817491462e-10,7.321991586658642e-07,-0.00022445833452634808,0.7374789218356308,3.2154745381402946e-10,-9.746725559453036e-07,0.0009513198406391497,0.40754095909647264
2.4955662246575954e-10,-4.392393755703327e-08,-0.00012169481882085702,0.7225817771956731,-6.624241371498837e-11,1.8532758511624694e-07,-0.00016479658460670198,0.730219235473222
-9.119704350387067e-11,1.387764893300525e-07,-9.142837243906287e-05,0.68173288544172,2.602724982375044e-10,-9.143420686257133e-07,0.0010405726483186412,0.2715697650366766
9.760738383891635e-13,1.4610884300532379e-08,-2.5931203407736394e-05,0.6508740832386253,2.4364389941567253e-10,-8.794828798373347e-07,0.0010057031040090268,0.28520127466399553
1.6273061820452033e-10,-1.330513350334587e-07,4.710361555358627e-05,0.6382983087966491,-8.910082713183412e-11,2.2192776934663498e-07,-0.00017618253310474244,0.6885721682015774
1.0301931842072367e-09,-4.0659400929445727e-07,7.358747998811411e-06,0.6429600659107051,4.9939034764577e-09,-4.157898749671327e-06,0.0011315811797430492,0.5369160917001314
3.6565250101777176e-10,-2.2249642460869705e-07,4.395613600085407e-05,0.6412428882587564,-1.2720471532600193e-11,5.0575833539612324e-08,-7.160520793948925e-05,0.7037823583655508
-6.625503183608524e-10,7.21408803339348e-07,-0.00018625925865684614,0.6710594326801387,9.514190502849008e-10,-3.2738745470196463e-06,0.0037062632497446304,-0.6347285230976865
4.3572544693020717e-10,-4.955886052101351e-07,0.00019968458197741553,0.7387145359809308,-7.559183119754144e-11,1.0866345286783664e-07,2.6686292358621092e-05,0.7186751001607001
-7.717152476245426e-10,7.305535014469637e-07,-5.50016438304034e-05,0.7643030079911912,-6.464655360374557e-11,1.9185010981200314e-07,-0.00020082022113707333,0.8896328119522211
4.548780109671299e-11,1.2254132701898966e-07,9.560443609025615e-06,0.810965407026091,-3.0381249036531126e-09,7.140633685153765e-06,-0.005440830248781758,2.157753665786435
3.892876774878427e-09,-5.753141349874858e-07,-2.7372340735932103e-05,0.8276716784208694,1.6204830173131474e-09,-2.3738598559577846e-06,0.0009342966343264615,0.7244248221387194
-1.6739244216760174e-10,3.042995983496036e-07,-0.00013738626833195618,0.8274627348016741,1.4563935213775402e-10,-4.429734059042388e-07,0.00043593309260556444,0.6872217324206122
1.085447604965257e-10,5.189304309193948e-08,-0.00010554851823414047,0.8253828005835139,-1.9253617143856013e-10,6.115584134162133e-07,-0.0006542286733414952,1.052581554340694
3.8070927063098363e-10,-1.3273493571078665e-07,-5.9332933747488625e-05,0.809346355859498,-2.587369469526048e-10,9.253570736516188e-07,-0.001091709311380043,1.254598675979808
1.1930473853479088e-09,-1.237644691355576e-06,0.00027347026692362296,0.8266235723441647,-5.2860182000410256e-11,1.6903911451352108e-07,-0.00019288926239188019,0.8854834583693594
-1.1926573052407749e-09,7.435823015718681e-07,-8.938613966536733e-05,0.8047938265255988,1.4428124394000426e-09,-3.644059343451087e-06,0.0030161799555825505,0.014047093065693681
-1.9829177034094703e-09,7.029711629388642e-07,-9.260172420038865e-05,0.8386104844090811,2.491081272511688e-09,-2.9432898800591153e-06,0.0011245806150592898,0.6992059698834078
2.5037655278886264e-12,2.5315081917095594e-07,-0.00016427057149994754,0.850749232296658,-1.6760087964644087e-10,5.649165271066965e-07,-0.0006237166331859088,1.061733155381297
7.458750764556129e-10,-1.0454844137882045e-06,0.00035364166050235634,0.819798064339833,8.748553248079607e-12,-1.0677598318223029e-07,0.00018017135988619666,0.7382482729616165
2.082462289970162e-10,-2.0167146233302788e-07,-6.079746536305052e-05,0.8078477260862336,1.2468671152795186e-10,-4.198153349442923e-07,0.0004345290078608148,0.5949814891620037
-5.124442617992536e-10,5.775590118300309e-07,-0.00016721011067397727,0.7288834640762216,9.940857390727122e-11,-3.1620637499802867e-07,0.0003181763073141164,0.6208579185349843
2.2375290021003754e-10,3.499847348645273e-08,-2.9539113307302258e-05,0.7211836415120053,1.1385568351551775e-09,-2.8602848493366667e-06,0.0023237360759477805,0.1359191096652946
2.9159131643527453e-09,-3.201553251523736e-07,-3.37188067795368e-05,0.7492709378577835,5.9242303410151175e-09,-4.950246266821787e-06,0.0012470941264253357,0.6521789735255082
9.847665348800082e-11,-1.2358682027832443e-07,8.420840163238432e-05,0.7338469927211275,1.5620269337316647e-10,-4.1872753768784587e-07,0.00034570001506547496,0.6770603858799598
1.5219684594849578e-10,-3.623063604374542e-08,1.843244959396165e-05,0.7690701344770743,2.9155476806128504e-10,-8.41237663147243e-07,0.0007605460726502572,0.5912806625721481
-7.112635732588226e-10,5.787372938089604e-07,-0.00010914315392437857,0.8030769738685526,-4.712961440931771e-10,1.6326664973492344e-06,-0.0018632535220505803,1.450329374219996
-1.4205199350691825e-09,1.4049763028375192e-06,-0.0003153364992950493,0.7594064678424688,-1.739271115834994e-10,6.688766094999855e-07,-0.0008145208036500477,1.0607800359828752
3.896550058808654e-11,-2.4873772399434118e-08,-6.0480489430682516e-05,0.7529898839400271,8.773571935710522e-10,-1.8260010069837648e-06,0.0011638601171807793,0.48255616758992587
1.0511113289500696e-09,-5.906177259545875e-07,0.00014115153656096355,0.6859606584194536,-4.859119578973429e-09,4.2254845425946e-06,-0.0011188963441767035,0.7882735013754929
1.6389057207577443e-10,-1.648776851016128e-07,7.10835037695051e-05,0.7011921427199177,-8.1641674499551e-11,3.0078602576705876e-07,-0.0003580172235436908,0.8625931903441246
-1.942517324641321e-10,2.559281626635267e-07,-2.3042065965041518e-05,0.723167170989791,-4.48499686786994e-10,1.5095358538934832e-06,-0.0016414952987566342,1.3238128150173485
3.7576456175045154e-10,-4.63141090140671e-07,0.00017385153026032243,0.7424685947339109,1.085858561649807e-10,-3.472021756391482e-07,0.0003548552424065995,0.651311949928046
8.161811625792331e-11,-3.1054595755174353e-07,0.0001694980478793376,0.7695899552157882,4.09750479636056e-10,-1.272810658667425e-06,0.0013369042687693506,0.3186120581374705
1.0612263428763964e-09,-6.821349830121229e-07,0.00010902269967922755,0.8187893698814135,7.996795743724619e-10,-1.9181701884415786e-06,0.001529530024194155,0.4603339532969322
5.0731017930636e-09,-1.2212192105954464e-06,6.277195287421e-05,0.8776373163960252,-3.9983096885904004e-10,3.6852826035651603e-07,-0.00014569333164315203,0.9076828320057335
7.038254432718227e-11,-1.4621371523463936e-08,2.918037628173066e-05,0.8795346480636497,9.759942669143891e-12,-3.4428272531212276e-08,6.0318266822991484e-05,0.8940719166545623
1.611317090555666e-10,-6.825798821774774e-07,0.0003968340477921764,0.9163026901386631,-9.445069737583399e-11,3.006477414362634e-07,-0.0003587920954143058,1.067456965755989
-6.204622332039811e-11,6.004436762714302e-08,-4.442307995810806e-06,0.8987309910963638,8.487388860576469e-11,-2.7541587025337743e-07,0.0002817429207424289,0.811315285551391
1.8591301904082033e-10,-1.5699717239863846e-07,-8.314617528972091e-05,0.9055161063331216,-2.6234872190580443e-11,9.744275957583974e-08,-0.00011495198711814687,0.8751616654591451
-4.827486344439683e-10,2.947461336230481e-07,3.5117468433089065e-06,0.8324816537818869,1.3792048901941263e-10,-3.2356469185778327e-07,0.00019550339102687245,0.819934302305964
-2.2480005821579134e-09,1.274884029429262e-07,2.2086122102931283e-05,0.8259641697246691,7.171898551509095e-09,-7.44779109546398e-06,0.0025534076813035138,0.5387237509268407
8.523200712500239e-11,9.71124390610424e-09,-5.612042241931491e-05,0.8386057975136076,-2.9530696706463284e-10,9.892271129865538e-07,-0.0010941562910147767,1.216243677898114
5.090368384495908e-10,-5.302529888559618e-07,0.00014997894813653062,0.80675311867504,-1.9897774227389103e-10,7.359724510029226e-07,-0.0008680708273775806,1.1371639264054065
1.9881162593331232e-10,-9.472016395655627e-08,3.6594100434654336e-05,0.8152485857599379,-1.462502499221736e-10,5.08495511744087e-07,-0.0005828214977435564,1.0703966051560279
3.056871792465324e-11,1.917956970615788e-08,-6.306761860837191e-05,0.8517703958648465,-3.716886409127376e-11,1.3153964204937384e-07,-0.00015933202466234412,0.8757620094695991
-4.1602922653967064e-10,6.153547066487633e-07,-0.00025917836944228963,0.8199669652652463,-1.4643564655707292e-09,3.647458160164417e-06,-0.002950547457154715,1.5255052889182972
-1.51571561253263e-08,4.524130322600742e-06,-0.00031231212714062645,0.7611223924816186,1.394473204516684e-09,-1.6768993262922176e-06,0.0006276185289923546,0.6837703995267639
-2.342091637183281e-11,2.740536251417178e-08,2.009396485275122e-05,0.7575497436524381,-1.4390033598317507e-10,5.117571725677526e-07,-0.0005998267469286981,0.9963249401418852
5.39479759813866e-10,-5.576864758828722e-07,0.00016701381005780055,0.756505601453737,-4.842628613976305e-10,1.5342598368529485e-06,-0.0016260691105461243,1.3380944991230141
-3.5574586314152547e-10,4.6937079371402547e-07,-0.00017724895717720397,0.7481350088398542,-6.156029470111992e-10,2.244400762403062e-06,-0.0026969890733939037,1.7568967996807217
5.676386540907839e-10,-5.990207431379068e-07,0.00014265837358416533,0.6788551153610106,-4.6697832930373294e-11,1.8472543007298804e-07,-0.00023216631007533229,0.7664256564880458
4.5745969341236757e-11,-1.5836009085006372e-07,9.751450258350043e-05,0.6696701832399032,-7.940761832292849e-10,1.9469227356006352e-06,-0.0015545835551384862,1.0880521309303481
6.083052173263883e-09,-1.5537994175647856e-06,0.0001203464785231494,0.6823015388903939,3.121092075657159e-09,-2.6159941689055575e-06,0.0007340104487928824,0.6261604579930615
1.7171669182913106e-10,-1.335394286865768e-07,-3.0165077769688052e-05,0.6996909327518254,3.590517741145611e-10,-1.250683211676866e-06,0.001409031708985328,0.17144895801217666
7.502170273668792e-11,-6.144413399843836e-08,-6.949778231570395e-05,0.6857074932408544,2.293600699980334e-10,-6.766480406026523e-07,0.0006436879527459824,0.4287066429724516
1.2835074407123766e-10,-7.964299194709386e-08,-6.953823240292338e-06,0.6343683934814417,2.1438626083892245e-10,-5.929361166790669e-07,0.0005379195058624564,0.4781177942337161
-3.9677743003346393e-10,4.856875831090343e-07,-0.0001490990000596437,0.6643768769157856,7.279590373496575e-11,-3.231320351248606e-07,0.000447535259270702,0.46815603120382415
2.957759337877081e-10,-2.721425595264258e-07,3.2598003352226545e-05,0.6625831571815858,-6.066243923087789e-10,1.4538100446716348e-06,-0.0012120644205624795,0.9637260759606074
-9.525790393517651e-10,6.142098741492652e-09,-7.032810317043035e-06,0.6034420223269445,2.6571359587210328e-09,-2.4091635919190345e-06,0.00072300365557276,0.5225169744935555
-1.9797617826479615e-10,9.624540077890694e-08,6.899752479258563e-05,0.5917141457575029,-6.562319172049885e-11,2.208611968453091e-07,-0.0002223585292986104,0.6902401400871965
-1.0536324475924314e-09,1.1045474234357717e-06,-0.0002742839214495136,0.6325266428154404,-1.3167026908910833e-10,4.178873555793675e-07,-0.00045204307438761115,0.7831371146837506
-3.0786065839732795e-10,2.1859066233947582e-07,5.532916514174142e-05,0.6050370436511866,5.205248618662492e-10,-1.6764704681789471e-06,0.0017952747753153112,0.022587182581114185
-1.1627994681380266e-10,-4.518628506782577e-08,3.175493539800994e-05,0.6728742574213102,5.1640773883009044e-11,-1.504106578847005e-07,0.0001349230662382701,0.5976648783955736
7.057729501977062e-10,-5.078431268720831e-07,7.170647599520451e-05,0.6337472951588814,3.004684629940537e-09,-7.066746797027813e-06,0.005516000287078141,-0.6481603369949107
1.076498128609847e-08,-3.4428019740625056e-06,0.00021398514309583624,0.7984905491776778,3.415640632325233e-09,-3.500932665144306e-06,0.0011352198665509552,0.6702518598187377
3.831444958086692e-10,-3.8644349715688383e-07,0.00011907081464567971,0.7782777304814021,1.826475932363507e-10,-5.924908866450882e-07,0.0006110997975324506,0.5995289982906137
2.2563471986266334e-10,-3.2413817701915755e-07,0.00011852895762173721,0.7899224190341306,2.1267516009839017e-10,-6.71687383323482e-07,0.0007051955122319754,0.551201316727432
-1.0828414065240373e-10,2.122005435714673e-07,-5.938859342906022e-05,0.8083664177916702,-9.659249045320511e-11,3.859036557792726e-07,-0.0004754256505396879,1.0131922422461175
5.67904057028494e-10,-5.464547242862782e-07,1.426847938002994e-05,0.8342028469114544,3.2975061066974767e-10,-1.1278536140374858e-06,0.0012204509743584996,0.34545925858810733
1.0121455658771854e-09,-8.631759483272952e-07,0.00020600984110407856,0.7406158923754526,6.668313865114156e-10,-1.4661059995683766e-06,0.000958557618346006,0.5565018603870624
3.9135252712074166e-09,-1.2975416458368004e-06,9.95904529954268e-05,0.7085311524656281,-8.627710814181848e-09,8.779718983241088e-06,-0.0028836678486286577,1.011338998134423
5.995197817385153e-10,-6.150864336113208e-07,0.00019781536527314927,0.7030632710526123,1.8284855415543892e-10,-6.016890219063744e-07,0.000653748102733064,0.5098861824754162
-1.404807812931441e-10,3.0742499637820455e-07,-0.0002591571913945752,0.7564468522544499,3.327672669598318e-13,-1.2240457498562348e-08,1.6461184515199988e-05,0.6733100835571908
2.543331733031965e-10,-2.8720777832111853e-07,0.00012256622977729152,0.6712090475984785,2.9802881937750716e-10,-1.0486389553624102e-06,0.0012208601040060152,0.25288757348057844
1.5472120986237488e-09,-1.866210317282697e-06,0.000427386854748282,0.7125398254408511,5.549795683099462e-10,-1.8353883557325832e-06,0.00204680885960843,-0.06512015387168141
-1.003250576884419e-09,9.099947083348792e-07,-0.00021366246868648322,0.7209150779557187,-1.989687022380585e-10,4.2639405236517997e-07,-0.0002596338201213017,0.7667027314276463
-1.2494410680062144e-08,5.781428020583803e-06,-0.0006028070338695282,0.7811333529794962,-4.975240365019455e-10,1.2115444975007315e-06,-0.0005401198278452763,0.8593948769919675
-5.955332977179556e-10,7.607913576814104e-07,-0.00031524151747282,0.8227542583102007,-2.967687132392487e-10,1.0412747314031547e-06,-0.0011548727020195572,1.1692063672467332
2.634861027701274e-10,-5.785518832983336e-07,0.0002009079651516859,0.7661878762435874,4.1141206965893844e-10,-1.2542274843125433e-06,0.0012339264792986424,0.32344148773577386
-7.543763696416014e-10,7.69690684815915e-07,-0.0001496385360287383,0.727788520472359,-2.3364266930623347e-10,7.637499318612739e-07,-0.0007577920408061916,0.9879836894771967
-1.3428601985829196e-09,1.2858300710860502e-06,-0.00023826495114168228,0.7897319539215926,-3.3607040744417667e-09,9.385812381296877e-06,-0.00857282567359311,3.3636374759357524
-3.6224290295788864e-09,1.368732420234122e-06,0.0003034384491077074,0.48886027860638154,-1.7192258232440459e-09,2.9656051203441533e-06,-0.00136862706324026,0.7051480582119978
6.921929666458645e-09,-5.168004378826353e-06,0.0008198502619071372,0.5217020093369743,-6.740721824574055e-10,2.9479170971485927e-06,-0.001629224706178839,0.7524881134169514
1.3318681938179703e-09,-1.5839840147466945e-06,0.0004621450188521904,0.5126658316559165,8.223577984767108e-11,-9.581849513498688e-08,-5.511605684949737e-05,0.5928043698859056
-4.736251130607896e-10,3.2304075540937187e-07,-1.0091999765607866e-05,0.5583399411290892,-3.6076686752907016e-12,-1.1214901403613185e-07,0.00026979894928796363,0.41202258680424264
-4.497977071176692e-11,1.3173629230128738e-07,-1.700097629544685e-05,0.5660972471860363,-2.1904968450384143e-10,5.862130830177499e-07,-0.00047665639684839404,0.71437744905985
-1.6559908046770737e-10,-2.157567042377034e-08,9.768255671207576e-05,0.5849937671890417,-2.3385184944478913e-10,5.564395645712568e-07,-0.00030572849948373417,0.5701158697239691
-2.3971282263393083e-10,3.452467892663533e-07,-5.290800746163629e-05,0.5867678245558955,7.6930918933762e-10,-1.750150995962445e-06,0.0012748612644212967,0.32644366453970847
-3.688289998487977e-09,1.052562424619279e-06,-7.826041594175497e-05,0.6184242504169514,-2.0910135911553698e-09,1.3659982775031604e-06,-0.00019423889367302548,0.613891102047727
-2.5469668954477056e-10,3.954551147874657e-07,-0.00015805390912943863,0.630045992088893,3.7367559521851007e-10,-1.2932525992744805e-06,0.0014280267764236122,0.12689918225753363
-8.199275599476943e-10,6.218521047697008e-07,-7.39181252626542e-05,0.6185934781600201,8.251758207966285e-11,-2.857818951658389e-07,0.00027310204094953034,0.5002509601410343
5.167291334726781e-11,-8.014291505362136e-08,5.5298446044797504e-05,0.5510179879171081,3.956788333025354e-10,-1.3458505514180878e-06,0.0014846816186050201,0.057840021554758224
-5.813584272898149e-10,6.539363040387822e-07,-0.00022276316630463698,0.600260195415382,-9.14851238377849e-11,3.4391855388118205e-07,-0.0003943369408628734,0.7024023369067462
6.257891111840022e-10,-4.851764819240022e-07,6.809481868271543e-05,0.5759032920953587,4.892997522921958e-10,-1.0676389200498145e-06,0.0007678166277065557,0.36728406255634327
-3.286371595515646e-09,5.986500276704826e-07,-1.3630207890964819e-05,0.5504388269991527,-7.649043284558533e-09,6.808338033518038e-06,-0.0019059872434143339,0.7158265134301602
-7.220221600751477e-10,8.742693137298793e-07,-0.0002773951162414185,0.5636493502112763,4.518784213823767e-10,-1.3843571261125382e-06,0.0014042958648185402,0.08726494181939076
2.2380943736876813e-10,-4.853600901174787e-07,0.0002392559417672665,0.5630316304846512,-9.503040516716571e-11,3.889866664234343e-07,-0.0005183365179291758,0.7871942481758425
-1.6963018880875694e-10,3.3775478436980464e-07,-0.00010786335847100109,0.5677607251554001,4.180579363695139e-11,-2.5563476208956995e-08,-9.666008989668779e-05,0.6705387811310718
-7.587039695455772e-10,7.539560271158962e-07,-0.0001708389007637774,0.605163313544551,5.012500582005449e-10,-1.5477385962471242e-06,0.0015547724192603474,0.09787543787579264
-1.3358902034151137e-09,9.261454039221153e-07,-0.0001418378241544757,0.6185939562790664,-2.343317184507252e-09,5.610403941189555e-06,-0.004452365683999796,1.734818033181753
-3.3741642788611074e-09,8.051127134476699e-07,6.32752883885505e-06,0.5510128291219213,3.9819087428381995e-09,-4.315357193401391e-06,0.0015311282685161864,0.3867507121619839
2.935710192854446e-10,-1.634602737185064e-07,-1.5589951577679446e-05,0.565263913674382,1.7794262196784404e-10,-5.604667468049168e-07,0.000572910786098032,0.3810231776833506
2.1379954985262098e-10,-3.4601112437633606e-07,6.490608587432812e-05,0.5693765035705043,3.9371373044245755e-11,-1.820375358896692e-07,0.0002463193185654954,0.4234952768036911
-2.8424119969390876e-10,3.7035389587821765e-07,-0.00013694037911387148,0.529574167731818,2.6431850357370305e-10,-8.33491953279432e-07,0.000881715116703974,0.20980350033069145
-1.1708011542888195e-10,9.427457445305986e-08,-4.703155540921e-05,0.5424444231579068,-1.0726660072228656e-10,2.716927705228409e-07,-0.00018377111318234785,0.5498149280024892
-2.7573054825416176e-10,1.0491851162098133e-07,-8.611111909814785e-06,0.5349405456829615,9.755958326626876e-10,-1.7553855092596933e-06,0.0008476496820949214,0.42947633827462706
-2.83135547657165e-09,7.816203704585138e-07,-6.625569171123294e-05,0.49036646530521605,-8.223164799644901e-09,7.710174509938297e-06,-0.0022825638700953027,0.6961111016787436
-2.8582273781509186e-10,2.467516115840895e-07,-3.428261505102273e-05,0.4921664959192764,1.21855274224785e-10,-4.392302793115963e-07,0.0005134493590462076,0.3112732977664292
2.739961635031816e-10,-4.2916557304907074e-07,0.00016104063519777005,0.5043966465110358,1.4265070545222807e-10,-4.314891708109053e-07,0.0004277424001232362,0.3640044653529519
-1.3709703576089072e-10,1.3743643869021116e-07,-3.526282615143755e-05,0.5120967315683845,1.9346909052611717e-10,-8.634555977729236e-07,0.0012727115013038966,-0.051889771223627874
4.1534625163785474e-10,-5.682313777612137e-07,0.00023533815296420944,0.5592901196670292,-1.8033801530384825e-10,6.205415747281768e-07,-0.0006881766838354864,0.8202642084861049
-1.0268393143426026e-09,8.612197538455994e-07,-0.00014140835447090492,0.5846561987924004,1.48451814088479e-09,-3.4549710994984618e-06,0.002659206141831759,-0.029022667245417407
1.1836467831429006e-08,-4.036607530970345e-06,0.00036738570857864847,0.6430325376603947,1.654915609710037e-09,-1.788629117002449e-06,0.0006086086006508004,0.5836130408495586
7.611535879495876e-11,-1.1179540218818086e-08,-3.37908185874541e-05,0.653665968311856,-1.1349699127563426e-10,4.199886020437085e-07,-0.0005005606416556405,0.836988709801198
5.123259586693568e-10,-5.288244785743234e-07,0.0001922196740526302,0.6436771897254637,1.0497167381982997e-10,-3.5888967378472307e-07,0.0003787428273550879,0.5659135513775893
-1.3894122064558352e-10,9.440513387302317e-08,-5.094926361307572e-05,0.6839015116699257,-3.476118449206887e-10,1.2040468489632843e-06,-0.001374959035088843,1.1474987074156413
-8.063972441519254e-11,1.6685101966913396e-07,-8.709349630136192e-05,0.6317674381603627,-5.0722872983239225e-11,2.0951337326675546e-07,-0.0002705721195154558,0.7266721193889886
3.0575805291529166e-10,-1.7758876309612472e-07,5.083926006623001e-05,0.6190685293903995,-2.3234110831139998e-09,5.2786567036932415e-06,-0.0038685286362426063,1.4895184383744762
-2.3298359596031184e-09,6.098842644492852e-07,-2.3886326103268488e-05,0.5808058379774038,-6.705090990586392e-10,5.243503731751463e-07,-4.5598848606622445e-05,0.5710133387186881
-1.9380662514807684e-10,2.2779530590836187e-07,-0.00010029780003246522,0.5970600014735156,3.203462595286719e-11,-1.4093958795577935e-07,0.0001934493406672992,0.4949817867934281
2.1163325943405385e-10,-1.1395414036269063e-07,1.4577328577150124e-05,0.5771279823604707,-1.2206973489867752e-10,4.897476543161637e-07,-0.0005651205289372557,0.799288798772552
-8.987218956749671e-10,9.026963781568377e-07,-0.00018858032197911567,0.6388738669891609,-2.6362989864501107e-10,7.802627463013153e-07,-0.0007343982282096959,0.8727825883469091
6.075973581220624e-11,1.345470281949793e-07,-0.0001235845818501701,0.6536356353560296,-1.809316000498224e-10,6.721602481465884e-07,-0.0008202807049004927,0.9510865261372573
-1.4836326598547407e-10,6.939579394368838e-08,3.0005718145225455e-05,0.6209300455822464,-6.411467937596596e-10,1.6831862924901154e-06,-0.0014876633380549132,1.086704468723377
2.1232611168472735e-09,-3.323985788336823e-07,-3.7103510577771265e-05,0.6464705852393364,-1.3208280382733128e-09,1.493081220223007e-06,-0.0005374189581797462,0.6989958764068254
1.85454822774218e-10,-1.4253539563776576e-07,5.87618049577493e-05,0.6369416181458044,8.346349970756487e-11,-2.057800484440068e-07,0.00014593270664213463,0.6341462306906637
3.260800724199905e-11,-3.5660405887705964e-07,0.0003318148708462242,0.6548962555476402,-7.483575010876823e-11,2.1722256793047033e-07,-0.00019710877937054676,0.7872949690566176
-2.99015319220307e-10,3.356933763425392e-07,-9.518994367812452e-05,0.729613476683668,5.958104704246568e-11,-2.2545366010123506e-07,0.0003224801554223851,0.5850888240660663
3.0711552318430623e-10,-3.442315841529025e-07,0.00012335606389203305,0.7514006638210067,3.1364890691362944e-10,-1.1621072616021716e-06,0.0013788972648268198,0.26337565082989906
1.189617865638157e-09,-7.946704749836963e-07,9.816572467490975e-05,0.7767815196112601,2.6568553454546855e-10,-5.855446467846112e-07,0.0004291748524633478,0.66248582910677
-1.957333756620538e-09,-4.1388994825474694e-07,8.298496498343088e-05,0.760980060634943,-1.8431249183440445e-09,1.1398809998702428e-06,-0.000224376358133083,0.7571619706358153
-1.6011671360870843e-10,2.118210101020808e-07,-2.6548989244351576e-05,0.7352496488243775,1.3332174900928139e-10,-4.065165729182987e-07,0.0004159485131938247,0.6249380319209824
-6.18088125793133e-11,-8.405862727272724e-09,2.046712693394885e-05,0.7774390254994338,-3.255626139499054e-11,1.1471514949789906e-07,-0.0001495970336381033,0.8233388586953113
1.674428508182644e-10,-2.508116205953643e-07,4.078286604433307e-05,0.746334914308038,4.9568223202301254e-11,-1.4271676124211119e-07,0.00014220190153309284,0.6734113087634472
-3.659183166937133e-10,3.0863425407455494e-07,-3.0077448346280437e-05,0.7286612843658803,-5.4273729449430353e-11,1.684339414523543e-07,-0.00015219461662015934,0.775012030784117
4.927528544322155e-10,-4.013851608294395e-07,8.556614904183203e-05,0.7405844408185303,2.2548559164788053e-09,-4.925614586406216e-06,0.003281437503295348,0.060375054620646185
-6.510378336838433e-09,1.4217784327375177e-06,9.538776089480796e-06,0.6587095792623248,-2.266289565484015e-09,2.176650719675323e-06,-0.000646135818761644,0.7283356035427196
1.752693591103751e-10,-1.4205783010597246e-07,-2.703478705758636e-05,0.6761453258226422,8.101903654147386e-11,-3.6683998287921846e-07,0.0004893181856258767,0.4596533169026229
-1.706426669500061e-10,1.1168556487174244e-07,-2.8892564372379187e-05,0.6500999160009973,-1.2261577019057082e-10,4.6413550595330993e-07,-0.0005510100019385416,0.8343322341757019
6.494982113351713e-11,-3.823193681451282e-09,-4.5205027348935445e-05,0.6368595954749091,-1.1091518077161835e-10,3.5980662163009316e-07,-0.00037768168000164136,0.7654387423830781
4.950430184693817e-10,-2.935851589340843e-07,1.166280533686374e-05,0.6335955081315463,1.206615244478954e-10,-3.899605816487776e-07,0.0004124152788928908,0.5271479353955036
7.238428259642723e-10,-4.0308636730711117e-07,6.588932125283916e-06,0.6734328262469426,-2.002074310288145e-09,5.045625906434439e-06,-0.004207566798775725,1.7994786521966384
9.884003302648982e-10,6.2472825237087255e-09,-2.855519181610306e-06,0.6359343992316809,-4.804950491043054e-09,4.537561473259961e-06,-0.0013697334719367552,0.7730690529657265
3.6922400261518277e-10,-4.648360672245687e-07,0.00012425910980212656,0.6435655793797486,1.37439945796839e-10,-4.0808443844795516e-07,0.00039014974189597093,0.5119700286182042
9.557544711283372e-10,-7.948938656988097e-07,0.0002046844889448521,0.623050787328145,4.3312704541793156e-10,-1.4125455193632724e-06,0.0015030401367622024,0.1897812892829139
-1.3659461053858554e-10,1.778424672700509e-07,-7.505641389909491e-05,0.717498691862718,1.0065421296045807e-10,-3.045625905128655e-07,0.00031757979363694627,0.589773877047024
-9.61629841225653e-10,8.620430467589118e-07,-0.00012162483951499254,0.7150646953056272,-1.0081851580229117e-10,3.2710029208299754e-07,-0.0003129964808627826,0.8046771116100218
-1.2347037869269876e-10,6.67535793273741e-08,-3.0557004914148135e-05,0.7353265205413894,-1.06778475703853e-09,2.7718766960521445e-06,-0.002323361829463779,1.314075482503585
-9.595671297859115e-10,2.9059119015073633e-07,2.3506492152517673e-06,0.6970605132628529,1.28839337899422e-08,-1.1908698064931873e-05,0.003563695187337321,0.36044547704796975
6.30607031271884e-10,-6.349410505337128e-07,0.00013025371451957782,0.7023470090654528,9.180125089264863e-11,-2.939338245986058e-07,0.0002984283563025835,0.604763008769098
-9.630653210124772e-11,1.644641941769005e-07,-6.036163953600684e-05,0.700258287990573,-3.4904438958336234e-10,1.2311631128843168e-06,-0.0014196153518242112,1.219367301204044
5.785686801401527e-10,-4.958078778749563e-07,0.00010984444752050567,0.6872163959941653,-1.5677991462173112e-10,5.559612563614807e-07,-0.000655008964935325,0.9643628089331316
-4.4695994023074153e-10,5.09005313613862e-07,-0.0001523163017207299,0.7123237190941734,-2.2298202931905915e-12,-1.637597510002658e-08,4.040810653285547e-05,0.6852614091293869
2.955511566501809e-10,-2.6128801471085247e-07,3.1266437452366806e-05,0.7022812280169248,-8.021803603591086e-10,2.047910440662524e-06,-0.0017413405736519676,1.130199547732342
-3.2955310995500787e-09,8.085314992979879e-07,-2.6613730229311898e-05,0.6353258461856938,-3.1282112609036945e-09,2.624792702562441e-06,-0.0006469595744907875,0.6856659342411722
1.9710857445629518e-11,8.210629849483747e-08,-4.9741800796324045e-05,0.6482683273166162,-5.7635567576002736e-11,1.5784450415894043e-07,-0.00013962274917459877,0.6924588714661343
2.928335798447627e-10,-4.40327181494221e-07,0.00017346545718988646,0.6426770209817838,-9.805523821828563e-11,3.664620276266476e-07,-0.0004592521608173805,0.8262548617487354
1.619352597054576e-10,-2.2060286194778022e-07,9.93204639368067e-05,0.6147720101662292,-4.823402133905619e-12,-1.1326740696891159e-07,0.00029802603434963865,0.4801140004577995
2.415401119240992e-10,-3.990430354084352e-07,0.0002223384350269602,0.6617039765834531,-4.29789098331036e-10,1.4292814010469866e-06,-0.0015747983852494886,1.2513277650129484
1.2556496359597482e-10,-8.853906503693915e-08,5.011831827676719e-05,0.6679120089333477,-9.399965993699874e-10,2.0482277793765165e-06,-0.0014133558019493123,0.9979520284200739
-1.3768888844560221e-09,3.274532854054197e-07,4.600665226057963e-05,0.6920194901431231,-9.065174504651546e-10,6.673783806597124e-07,-0.00018045607140185145,0.7171442207802596
-1.791316161150081e-10,2.157398401651363e-07,-2.1203316728652244e-05,0.6934896117357285,4.0096055124603204e-11,-1.2854412516650234e-07,0.00011520597570051877,0.6870452484939528
2.281913610519492e-10,-4.106843653385947e-07,0.000129014258070654,0.6998827614418544,2.2260046027371489e-10,-7.629775906371011e-07,0.0008389504128129896,0.3888839199205079
-7.682083281384876e-10,7.744325624475848e-07,-0.0001957543939991134,0.6867430710204128,1.0450105758413331e-10,-3.521477834158809e-07,0.0004157270397803996,0.5166747824949531
3.4683652726470925e-10,-2.4348583263297717e-07,1.1084164446026111e-05,0.6952257872446813,-4.127089429836491e-10,1.3756832444585064e-06,-0.0015066348805845742,1.2269794572015271
7.064701898749603e-10,-5.028151088756993e-07,-1.2622494858294493e-05,0.6884802782990621,2.299596661768387e-09,-5.657432406899868e-06,0.004603844384835458,-0.5405728971855365
4.239466920302609e-09,-1.7617994296293717e-06,0.00018724798666967584,0.695136244199634,2.561205209307605e-10,-5.267077545189293e-07,0.0002711617899560289,0.6570611986890051
-2.802915770597737e-10,2.076365692740241e-07,-3.7265931022783794e-05,0.6985390248883476,3.974750623983822e-11,-1.712255803962405e-07,0.0002086094297568398,0.6057993840015753
1.6204000321869373e-10,-4.045643885629631e-08,-8.691452850138178e-05,0.6729768526098303,9.017486592651792e-11,-2.639029489929585e-07,0.00027572337348626396,0.5725207786685653
-1.0231053589807697e-10,1.918229062589684e-08,1.2455209176036618e-05,0.6852986157937978,2.1992665244276196e-10,-7.361309376499469e-07,0.000796710684952208,0.39892131660331165
-1.2592324674727865e-10,9.244236837438573e-08,-4.654156415067937e-05,0.6737247662793545,-2.481762823717662e-10,7.640219033990343e-07,-0.0008075042861652642,0.9216997824897778
-2.595859745494944e-10,3.5928354303319926e-07,-7.572396903822421e-05,0.6078023503717057,1.7355185324180382e-09,-3.7073220449191895e-06,0.0025934349501574414,0.05525421422911749
-6.646171600377364e-09,1.9954406393178675e-06,-0.0001297383663566999,0.6650740996176292,3.962246317129447e-09,-3.349745681959025e-06,0.0008856449610350426,0.5938334855017414
8.996562950372168e-11,-7.343032252385997e-08,-3.522776115026823e-05,0.6645864856126078,-2.7885553673411283e-10,8.965729668667976e-07,-0.0009601287271040903,0.9635571351572563
8.048700221936158e-11,-8.697185316244839e-08,-5.8914391408487787e-05,0.6212993671133623,-3.326526995353491e-11,1.1566784328434923e-07,-0.00014122124659207626,0.6154282074547125
1.063734392696639e-10,-6.639867111070608e-08,-4.1651755758308553e-05,0.5529357219009957,2.764153057572131e-10,-7.681571285264548e-07,0.0006679342318282507,0.34704947075512044
-4.0636103419724064e-10,5.479284767887408e-07,-0.00017254667370761195,0.5346893592013156,3.300303856048556e-11,-2.0479732866374963e-07,0.0003202148352206945,0.4069638233301053
-6.808759942280177e-10,5.51308596475151e-07,-0.0001512145512535662,0.5407292228048073,-2.7930912992135435e-10,5.63715876065908e-07,-0.0004281780266595433,0.6340446516478104
7.961218746092447e-10,-4.1043500645294415e-07,5.274299886937649e-05,0.48717802874510135,8.908191117196467e-10,-7.530996064283469e-07,0.0002731795313117186,0.45318911343466295
-2.4405421545283497e-10,2.547095069813215e-07,-4.906147425892248e-05,0.5020164306560165,-8.167412801115445e-11,3.162662239343521e-07,-0.00036065020148671914,0.6393938926195624
1.8805818323274504e-10,-2.857392254745699e-07,6.968235831135133e-05,0.523549771624423,-1.6503286654775808e-10,6.430530548703821e-07,-0.0007944950295302235,0.8118032147005464
1.5986626959621066e-10,-2.999089189143141e-07,0.00011521054035706315,0.4925472839744191,2.9743531420710116e-11,-1.1660194806926682e-07,0.00015673263942133996,0.420247659006545
-7.549697915348089e-10,5.679848889162962e-07,-8.874702200007495e-05,0.48788185557688935,-2.622592554301926e-10,7.783901115193705e-07,-0.0007813154974679514,0.7215330358964216
2.4894798567632404e-10,-1.103800437650033e-07,-3.3557555660720775e-05,0.4397156445919331,4.765409639492878e-10,-8.734238462860623e-07,0.00047944139895545027,0.33867776538142425
1.6886589819860168e-10,-1.324419450362065e-07,2.069180538460452e-05,0.41772428977826614,-4.375306133399778e-09,5.1994711417792536e-06,-0.0019613266422768825,0.6422602240864032
-2.9068627281341764e-12,-1.12755342984942e-07,0.0001024394413387425,0.4043543380175381,2.4883445797801125e-11,-4.4658873882175496e-08,4.1352660395130735e-06,0.4291102468105461
4.2252021112994294e-10,-4.97072748497364e-07,0.00014277467561477902,0.41027792500647914,2.186331415912731e-10,-6.952677383016054e-07,0.0007144540645330792,0.1878781240525041
-1.3522456456724523e-10,-7.058740564769122e-09,0.00010938962589327629,0.418373730725226,-1.6541521787726682e-10,5.271254288378783e-07,-0.0005607138713735418,0.6376694017861778
-2.0472195442144966e-10,1.547016533760516e-07,8.54134783799105e-06,0.4345993893076944,1.397846561672015e-10,-4.364755394201944e-07,0.0004545397713552624,0.2746755069755068
6.128159434033988e-10,-4.834265695195761e-07,0.00012327238700144435,0.4332006463877195,-1.461797743325596e-09,3.387843782457649e-06,-0.002436474939556457,1.0112656759277128
2.2879377951524523e-09,-7.931589460026938e-07,3.451588758515287e-05,0.5018388241868695,3.783412666875853e-09,-3.09153824310688e-06,0.0007585531762373903,0.4357466583518666
5.872515739734093e-11,-4.33443502722683e-08,-2.9728835811256083e-05,0.4898747303917348,1.8591066799408298e-10,-7.04978818075989e-07,0.0008549613301733421,0.15827010484099854
-1.9263573485517044e-10,2.585826432392184e-07,5.817039970380636e-06,0.4836422815581461,3.039854090811396e-10,-9.609522182819183e-07,0.0009966391774945186,0.21914687280144346
5.0184822705946236e-11,-4.048689708328701e-09,3.063293676049411e-05,0.564965228336138,-1.1975736611800644e-10,5.685405951336743e-07,-0.0007939677025911509,0.9319017295762732
9.147749132834409e-10,-9.234401224948356e-07,0.0001752099027852472,0.5989675136666384,2.398437412384131e-10,-8.538594370257381e-07,0.0009736370447550852,0.23998433722830845
4.344795092527083e-10,-3.2372560620490394e-07,7.349560613408672e-05,0.585370312193322,1.215167221012315e-09,-2.8574017185523744e-06,0.002253182706164058,0.011324600360302467
-1.0966397749085675e-08,3.0785685005190903e-06,-0.00011172739464626902,0.5794300776161758,-8.24295308698912e-09,8.723884472832904e-06,-0.003037832780359908,0.9238476774315204
-5.423484593294813e-10,5.175449591457867e-07,-0.0001492488878873173,0.5744331542213496,1.3448775954678202e-10,-4.822667674785174e-07,0.0005606971581333071,0.33385917725733066
4.114618873694948e-10,-4.7258498839925126e-07,0.0001428057305788765,0.5423974948341889,2.0345760163590966e-09,-5.632193879755739e-06,0.005110426805069775,-0.9912179457006445
-1.4245599567252657e-09,1.8178628716980156e-06,-0.0010223077295634616,0.766805221613636,-3.5548001658532143e-10,1.286176678911084e-06,-0.001505654371091556,1.0243379246950868
2.615018101888474e-10,-2.4447399349804505e-07,-2.302625581567092e-05,0.46552523894121306,3.3781796273540454e-10,-1.020884898632846e-06,0.0010127892965908613,0.09584465993263033
2.5211554206581267e-09,-1.7216147229644165e-06,0.0002208286441128941,0.4358360646241529,-8.77390627877412e-10,2.5029779816934338e-06,-0.002326855343643775,1.0987601286951694
2.634315098247397e-09,-2.0637216098512327e-06,8.625839601304239e-05,0.3834233932955351,8.134270229489494e-09,-8.286673549186348e-06,0.0027461346097076055,0.059306838949899604
-6.759019898604237e-10,6.621220197738641e-07,-0.00024090563247239553,0.35893109667010975,-5.16533273778865e-10,1.6588453922297818e-06,-0.0017099232475311214,0.8750006101009299
9.497583714291626e-10,-1.3587075288610206e-06,0.0004920843889309856,0.2940103788140447,-3.232069367223289e-10,1.1381011301840783e-06,-0.0012679119164721617,0.7462662043017902
-3.171215022379938e-10,4.173003467145776e-07,-0.00021863315798149123,0.3225490028257597,-8.496989123891559e-10,2.750453295463798e-06,-0.0028832459021100342,1.2474928414267572
-5.098137314365717e-10,1.7294233914656934e-07,8.838869971916383e-05,0.2661930216750329,1.6119682980309e-11,-2.271300882558217e-08,-6.532986236033985e-05,0.28631715324904594
-7.848962373329487e-10,8.0418924504271e-07,-0.00017073854709806445,0.20235671093032775,-1.98632470958242e-09,4.750688545736842e-06,-0.00372602095314645,1.148423840633473
-1.1167861601061102e-08,4.311006929414666e-06,-0.00039519194824221763,0.19360442952412402,7.324721134759414e-09,-6.792308257225677e-06,0.001981359205517852,0.016530263995340532
9.710039649607857e-11,-3.1708951501210344e-07,0.0002022162107264209,0.1878080580263852,-3.25892746064985e-10,9.241727409066611e-07,-0.000791057400834178,0.4077448356726441
1.0760814322340977e-10,-2.3825885175220785e-07,9.989871798493184e-05,0.2098307227516723,-2.0948353310458688e-10,6.43930506401011e-07,-0.0006354738217174192,0.41661773861523604
7.19616834501635e-12,-2.411069335617867e-07,5.9769388414229026e-05,0.21601070048430218,2.575086342987409e-10,-8.277750752753029e-07,0.0008346260936920944,-0.10793895059128848
-1.0504944053344261e-10,6.427442190756371e-08,3.996884642420715e-05,0.1470949862490936,1.6815402171166406e-10,-4.570741333797239e-07,0.0003983533381305363,0.04912791876113294
4.2847694513160096e-10,-5.621466004652291e-07,0.00021780901105008182,0.16612169022921977,2.163960493154342e-10,-4.941840155687538e-07,0.0003355890002105188,0.1311882367033035
-9.515770344703145e-09,4.291758954193187e-06,-0.0003789743832507821,0.20314166109479304,3.122770551796896e-08,-3.054539415989973e-05,0.009771970199425094,-0.7780105022963096
1.159312088497318e-09,-1.2582059931042123e-06,0.0002520184490187102,0.2317179219458754,6.928500711680211e-11,-4.1221747159604094e-07,0.0006581704322083139,-0.11234088536741903
5.582155661960699e-10,-4.844371489747379e-07,9.062719721678725e-05,0.1947428575956358,8.67532029657476e-12,-1.6831750075713234e-07,0.00033148200789127354,0.0635457940214069
-4.3032676991579e-10,1.3758802065413937e-07,4.8220274939905474e-05,0.21733295302782146,2.329854712242109e-10,-7.566689245829447e-07,0.0008090506171225948,-0.09237412452862208
1.0171403040151345e-10,-1.8657398798161652e-07,8.438336232787901e-05,0.20190373381216814,2.666490130421176e-10,-9.190056738143605e-07,0.0010895230315953771,-0.1955492558242174
1.0253473183069905e-09,-6.754674453280641e-07,2.2239436555668414e-05,0.2632491987695832,1.277872302113122e-09,-3.130857613856454e-06,0.002520134842640614,-0.4174521092706579
-5.058900719485731e-08,1.8627697700905815e-05,-0.0019272220817076419,0.21152944293813802,1.5477460016798347e-10,1.0204751590802286e-06,-0.0007818602216108893,0.29509897431400445
-3.597974817341901e-10,1.9451113737747518e-07,0.00024411189412062556,0.15340336039473965,5.551764730801928e-10,-1.8403160102495167e-06,0.001980861299640973,-0.36603504062345615
5.402663645385664e-10,-7.223967205742622e-07,0.00023120522502920735,0.30643285509920204,1.5733476894396277e-10,-5.382635335234908e-07,0.0006145786680127162,0.05559989657894199
1.9046896670211848e-10,-8.022097566013573e-08,1.3259299288498096e-05,0.29075773603018434,1.7034914584420267e-10,-5.017350917199963e-07,0.0005011259183011352,0.15062817375406115
-3.1293494532909787e-10,-4.3050671397217634e-07,0.00026127802363657587,0.314663211244602,8.706460990467843e-12,-6.964221305624724e-08,0.00010605849793403898,0.16179029350315902
-7.56234389261352e-10,4.5529160109357984e-08,6.962681614687979e-05,0.20264417988207004,-1.0527872828687816e-09,2.764458537996941e-06,-0.0023533840024592624,0.8030447743348736
1.5497623107456982e-08,-4.879075454119138e-06,0.00038633044424903843,0.14475339080619884,-1.0796255625471108e-09,2.3214067581384024e-07,0.00020108453475261757,0.1132988093065849
-4.358953711124904e-10,3.4436134031457103e-07,2.4513487399667522e-05,0.1602566188741151,2.2508002352790588e-11,-1.1157377312187595e-07,0.00015798570885020645,0.1574876574103513
4.927823559157036e-10,-3.242591097309394e-07,3.825881235327503e-06,0.2258460625108171,-2.0686897482695308e-10,6.989827273489361e-07,-0.0007524418019102215,0.47552676618231887
-1.876607202343224e-11,1.1355445529902616e-07,-5.7394377566700594e-05,0.23259419018621416,-3.8184369354013677e-10,1.8244392184696766e-06,-0.0027373094332715123,1.4341312606429057
3.360003794663911e-10,-4.166922031253998e-07,6.302099753627507e-06,0.12180649118974834,4.630607015226745e-10,-1.514292283141193e-06,0.001645327288693325,-0.5416043854208079
-6.992058860849682e-10,4.052528013823504e-07,-1.5277876504437488e-05,0.0643318510999302,-6.678559827507554e-10,1.4310253689090045e-06,-0.0009681560962315263,0.27312262631815326
7.391272801946914e-10,-8.424699713997998e-08,7.090490280386096e-05,0.07064198614829031,3.155897604130506e-10,1.2421056462007913e-07,-0.00020119629757949975,0.12418364618575599
9.001247077831762e-10,-8.952898345314095e-07,0.00018034009529048104,0.0805094048278521,-6.260792349387153e-10,2.226711573626296e-06,-0.002596452496309371,1.0331796975341638
4.252428269786189e-10,-3.859148133014256e-07,5.366029562768481e-05,0.029549949488619935,2.4650049876031663e-11,2.3365767129638565e-08,-0.00011645454736554247,0.09769933444637563
-5.883639737702214e-10,7.402543169231632e-07,-0.00021347185194704963,0.054583778701709974,-2.4659202394837964e-10,8.360896545474781e-07,-0.0009083039918744369,0.3774021724418753
1.2290024772593704e-10,-1.7033799388323905e-07,9.44837610691465e-05,0.061723352566055774,-1.583131791670013e-10,5.693416956618865e-07,-0.0006604205262606741,0.31510164014869685
-5.704800900784772e-10,4.3582413199308387e-07,-7.98697384153934e-05,0.07688213386738654,5.558777822611821e-10,-1.3523716522471761e-06,0.0010917443130483886,-0.21585842461045246
9.904018409536383e-10,-1.3117579090179764e-07,-3.502466372121295e-05,0.08111071692139948,5.399745393589061e-09,-4.59648775182209e-06,0.001311225473356416,-0.04233207451902846
3.959502854023479e-09,-1.6503614431799798e-06,0.0001432782449177521,0.08274130866897803,-2.500424138795002e-09,3.148628577978422e-06,-0.0012766602191350053,0.23380664822142005
3.5124838607026164e-10,-3.6617811756414116e-07,0.00011264355302641734,0.0662620753634522,-1.7121701852495076e-10,5.779120278705934e-07,-0.0006143085527493426,0.29006713526348904
6.694850829987842e-10,-6.415894885081021e-07,3.3175666659536284e-05,0.09690308059475254,3.382316121960714e-10,-1.1093790415817823e-06,0.001259108938565404,-0.43897057621516655
4.43908414323294e-10,-4.132359776997075e-07,0.0001045476457743731,0.07825406387986801,-1.4277673346633397e-09,4.517324797356654e-06,-0.004562953639329717,1.5883599224886094
-2.5284233601177867e-09,1.9136350615274646e-06,-0.0003377762372320184,0.1532079435847961,1.4173755166137215e-09,-3.4131891513419014e-06,0.0026227092139565794,-0.49229584425096584
