Date,eurusd_close,eurusd_high,eurusd_low
2010-09-01,1.2802,1.2855,1.2664
2010-09-02,1.2815,1.2848,1.2777
2010-09-03,1.2891,1.2897,1.281
2010-09-06,1.2872,1.2918,1.2866
2010-09-07,1.2698,1.2876,1.2683
2010-09-08,1.2712,1.2763,1.266
2010-09-09,1.2703,1.2767,1.2665
2010-09-10,1.2707,1.2747,1.2645
2010-09-13,1.2872,1.2892,1.2706
2010-09-14,1.3011,1.3033,1.283
2010-09-15,1.3012,1.3036,1.2956
2010-09-16,1.3083,1.3117,1.2977
2010-09-17,1.3042,1.3159,1.3019
2010-09-20,1.3064,1.312,1.3028
2010-09-21,1.3242,1.3281,1.3059
2010-09-22,1.3393,1.344,1.3248
2010-09-23,1.3314,1.3413,1.3305
2010-09-24,1.3484,1.3492,1.3287
2010-09-27,1.3472,1.3506,1.3426
2010-09-28,1.3583,1.3595,1.3382
2010-09-29,1.3627,1.3647,1.3567
2010-09-30,1.3632,1.3683,1.356
2010-10-01,1.3778,1.3783,1.362
2010-10-04,1.3683,1.3808,1.3667
2010-10-05,1.383,1.3859,1.3639
2010-10-06,1.3935,1.3947,1.38
2010-10-07,1.3917,1.4028,1.3858
2010-10-08,1.3922,1.3983,1.3835
2010-10-11,1.3875,1.4011,1.3867
2010-10-12,1.3914,1.3932,1.3774
2010-10-13,1.3962,1.4001,1.3913
2010-10-14,1.4076,1.4121,1.3956
2010-10-15,1.3969,1.4157,1.3938
2010-10-18,1.3986,1.3998,1.3832
2010-10-19,1.3728,1.4003,1.3721
2010-10-20,1.3956,1.3991,1.3699
2010-10-21,1.3923,1.405,1.3874
2010-10-22,1.3934,1.3973,1.3858
2010-10-25,1.3979,1.408,1.3935
2010-10-26,1.3848,1.3982,1.3826
2010-10-27,1.3764,1.3877,1.3735
2010-10-28,1.3931,1.3945,1.3759
2010-10-29,1.3908,1.3951,1.3806
2010-11-01,1.3879,1.4011,1.3863
2010-11-02,1.4027,1.4058,1.3882
2010-11-03,1.4132,1.4182,1.3992
2010-11-04,1.4206,1.4282,1.4103
2010-11-05,1.4035,1.4247,1.4024
2010-11-08,1.3918,1.4084,1.3888
2010-11-09,1.3775,1.3973,1.3752
2010-11-10,1.378,1.3826,1.3671
2010-11-11,1.3658,1.382,1.3638
2010-11-12,1.3699,1.3777,1.3575
2010-11-15,1.3564,1.375,1.3564
2010-11-16,1.3488,1.3656,1.3447
2010-11-17,1.3518,1.3565,1.346
2010-11-18,1.363,1.3667,1.3526
2010-11-19,1.3685,1.3731,1.3609
2010-11-22,1.3624,1.3786,1.3577
2010-11-23,1.3375,1.3633,1.3362
2010-11-24,1.3324,1.3421,1.3284
2010-11-25,1.3376,1.3386,1.3287
2010-11-26,1.3236,1.3365,1.3199
2010-11-29,1.3123,1.3302,1.3065
2010-11-30,1.2998,1.3149,1.2968
2010-12-01,1.3135,1.318,1.2972
2010-12-02,1.3223,1.3247,1.3059
2010-12-03,1.3408,1.3414,1.3194
2010-12-06,1.3323,1.3421,1.3245
2010-12-07,1.3274,1.34,1.3269
2010-12-08,1.3258,1.328,1.3181
2010-12-09,1.3239,1.3322,1.3166
2010-12-10,1.3226,1.3282,1.3179
2010-12-13,1.3389,1.3433,1.3183
2010-12-14,1.3384,1.3498,1.3364
2010-12-15,1.3221,1.3382,1.3211
2010-12-16,1.3224,1.3265,1.3182
2010-12-17,1.3181,1.3358,1.3134
2010-12-20,1.312,1.3187,1.3096
2010-12-21,1.3092,1.3202,1.3074
2010-12-22,1.3092,1.3181,1.3078
2010-12-23,1.3115,1.3153,1.3056
2010-12-24,1.3115,1.3148,1.3095
2010-12-27,1.3156,1.317,1.3073
2010-12-28,1.3114,1.3274,1.3094
2010-12-29,1.3231,1.3238,1.3085
2010-12-30,1.3279,1.3314,1.3213
2010-12-31,1.3366,1.3424,1.3285
2011-01-03,1.3351,1.3394,1.3251
2011-01-04,1.3298,1.3433,1.3292
2011-01-05,1.3149,1.3325,1.3127
2011-01-06,1.3014,1.317,1.2998
2011-01-07,1.2924,1.302,1.2907
2011-01-10,1.295,1.2964,1.2875
2011-01-11,1.2977,1.2992,1.2905
2011-01-12,1.313,1.3144,1.2962
2011-01-13,1.3349,1.3384,1.3089
2011-01-14,1.3368,1.3456,1.3315
2011-01-17,1.3294,1.3387,1.3247
2011-01-18,1.3382,1.3465,1.3253
2011-01-19,1.3465,1.3538,1.3369
2011-01-20,1.347,1.3522,1.3397
2011-01-21,1.3615,1.3626,1.345
2011-01-24,1.3641,1.3686,1.354
2011-01-25,1.3683,1.3703,1.3573
2011-01-26,1.369,1.3721,1.3645
2011-01-27,1.3737,1.3759,1.3638
2011-01-28,1.3606,1.3746,1.3584
2011-01-31,1.3693,1.3739,1.3571
2011-02-01,1.3831,1.3836,1.3687
2011-02-02,1.3807,1.3861,1.3768
2011-02-03,1.3632,1.3825,1.361
2011-02-04,1.3588,1.3678,1.3544
2011-02-07,1.3586,1.3626,1.3509
2011-02-08,1.3635,1.3689,1.3573
2011-02-09,1.3721,1.3744,1.3609
2011-02-10,1.3595,1.3735,1.3577
2011-02-11,1.355,1.3621,1.3498
2011-02-14,1.3483,1.3559,1.3429
2011-02-15,1.3483,1.3552,1.3461
2011-02-16,1.3561,1.3589,1.3462
2011-02-17,1.3604,1.3619,1.3537
2011-02-18,1.3686,1.3715,1.3546
2011-02-21,1.3675,1.3717,1.3644
2011-02-22,1.3655,1.3703,1.3524
2011-02-23,1.3749,1.3787,1.3645
2011-02-24,1.3799,1.382,1.3701
2011-02-25,1.3744,1.3837,1.3721
2011-02-28,1.3801,1.3855,1.3709
2011-03-01,1.3771,1.3854,1.3761
2011-03-02,1.3866,1.3889,1.3741
2011-03-03,1.396,1.3971,1.383
2011-03-04,1.3983,1.4006,1.3936
2011-03-07,1.3973,1.4037,1.3951
2011-03-08,1.39,1.3993,1.386
2011-03-09,1.3902,1.3942,1.3853
2011-03-10,1.3784,1.3925,1.3773
2011-03-11,1.3903,1.3914,1.375
2011-03-14,1.3997,1.4003,1.3902
2011-03-15,1.3993,1.4013,1.3852
2011-03-16,1.3897,1.4,1.3863
2011-03-17,1.4017,1.4052,1.3868
2011-03-18,1.4165,1.4184,1.3978
2011-03-21,1.422,1.424,1.4137
2011-03-22,1.4202,1.4249,1.4172
2011-03-23,1.4126,1.4216,1.4098
2011-03-24,1.4168,1.422,1.4049
2011-03-25,1.4068,1.4193,1.4052
2011-03-28,1.4091,1.4115,1.4019
2011-03-29,1.4095,1.4149,1.4045
2011-03-30,1.4132,1.4147,1.4049
2011-03-31,1.4197,1.4233,1.4113
2011-04-01,1.4224,1.4245,1.4059
2011-04-04,1.4216,1.4268,1.419
2011-04-05,1.4222,1.4245,1.4149
2011-04-06,1.4334,1.435,1.4208
2011-04-07,1.4307,1.4344,1.424
2011-04-08,1.4439,1.4444,1.4289
2011-04-11,1.4433,1.4483,1.4416
2011-04-12,1.4478,1.4519,1.4374
2011-04-13,1.4445,1.452,1.441
2011-04-14,1.4491,1.4515,1.4362
2011-04-15,1.4421,1.4504,1.4389
2011-04-18,1.4236,1.442,1.4155
2011-04-19,1.4338,1.4352,1.4202
2011-04-20,1.451,1.4546,1.4325
2011-04-21,1.4543,1.4649,1.4503
2011-04-22,1.4547,1.4588,1.4532
2011-04-25,1.458,1.4627,1.4522
2011-04-26,1.464,1.4657,1.4492
2011-04-27,1.4789,1.4791,1.463
2011-04-28,1.4822,1.4881,1.4767
2011-04-29,1.4826,1.4878,1.4802
2011-05-02,1.4825,1.4902,1.476
2011-05-03,1.4824,1.489,1.4751
2011-05-04,1.483,1.4939,1.4773
2011-05-05,1.4529,1.4899,1.4508
2011-05-06,1.4346,1.4587,1.4314
2011-05-09,1.435,1.4441,1.4253
2011-05-10,1.4402,1.4411,1.4267
2011-05-11,1.4195,1.4423,1.417
2011-05-12,1.424,1.4276,1.4121
2011-05-13,1.4106,1.4339,1.4064
2011-05-16,1.4184,1.4244,1.4046
2011-05-17,1.4227,1.4236,1.4118
2011-05-18,1.4233,1.4287,1.4193
2011-05-19,1.4308,1.4325,1.4204
2011-05-20,1.4176,1.4345,1.4137
2011-05-23,1.4049,1.4143,1.3968
2011-05-24,1.4113,1.4132,1.4
2011-05-25,1.4093,1.4118,1.4011
2011-05-26,1.4132,1.4206,1.4065
2011-05-27,1.4292,1.4302,1.4123
2011-05-30,1.4278,1.4312,1.4254
2011-05-31,1.4386,1.4424,1.4282
2011-06-01,1.4345,1.4458,1.4339
2011-06-02,1.4484,1.4513,1.4321
2011-06-03,1.4625,1.4642,1.4451
2011-06-06,1.4568,1.4658,1.4555
2011-06-07,1.4685,1.4696,1.4561
2011-06-08,1.4573,1.4693,1.4564
2011-06-09,1.4517,1.4651,1.4476
2011-06-10,1.4337,1.455,1.432
2011-06-13,1.4411,1.443,1.4319
2011-06-14,1.4449,1.4498,1.4376
2011-06-15,1.4173,1.4454,1.4154
2011-06-16,1.4176,1.4201,1.4071
2011-06-17,1.4289,1.4339,1.4124
2011-06-20,1.43,1.4327,1.4189
2011-06-21,1.4406,1.4422,1.4304
2011-06-22,1.4355,1.4441,1.4343
2011-06-23,1.4237,1.4338,1.4125
2011-06-24,1.417,1.4309,1.4139
2011-06-27,1.428,1.4293,1.4101
2011-06-28,1.4354,1.4397,1.4234
2011-06-29,1.4428,1.4447,1.4325
2011-06-30,1.4514,1.4538,1.4424
2011-07-01,1.4521,1.4551,1.4434
2011-07-04,1.4529,1.4577,1.4489
2011-07-05,1.4421,1.4553,1.4395
2011-07-06,1.43,1.4466,1.4283
2011-07-07,1.4351,1.4374,1.4219
2011-07-08,1.4249,1.4368,1.4204
2011-07-11,1.4017,1.4227,1.3984
2011-07-12,1.3968,1.4062,1.3835
2011-07-13,1.4139,1.4192,1.3949
2011-07-14,1.4131,1.4281,1.4113
2011-07-15,1.4145,1.4199,1.409
2011-07-18,1.4102,1.4133,1.4009
2011-07-19,1.4134,1.4217,1.4067
2011-07-20,1.4227,1.424,1.413
2011-07-21,1.4375,1.4417,1.4137
2011-07-22,1.4361,1.4437,1.4322
2011-07-25,1.4373,1.4406,1.4323
2011-07-26,1.451,1.4526,1.4355
2011-07-27,1.4366,1.4536,1.4338
2011-07-28,1.4306,1.44,1.4251
2011-07-29,1.4379,1.4413,1.4228
2011-08-01,1.4265,1.4453,1.4184
2011-08-02,1.4216,1.4283,1.4149
2011-08-03,1.432,1.4344,1.4142
2011-08-04,1.4132,1.4369,1.411
2011-08-05,1.4274,1.4297,1.4054
2011-08-08,1.4206,1.4401,1.4129
2011-08-09,1.4339,1.4346,1.415
2011-08-10,1.4189,1.4401,1.416
2011-08-11,1.424,1.4294,1.4101
2011-08-12,1.4248,1.4291,1.4148
2011-08-15,1.4442,1.4476,1.4259
2011-08-16,1.4411,1.4471,1.4352
2011-08-17,1.4439,1.4517,1.4323
2011-08-18,1.4325,1.4451,1.4269
2011-08-19,1.4393,1.4452,1.4257
2011-08-22,1.4369,1.4434,1.4345
2011-08-23,1.4437,1.4499,1.4351
2011-08-24,1.4421,1.4481,1.4377
2011-08-25,1.4383,1.4474,1.4325
2011-08-26,1.4496,1.4501,1.4328
2011-08-29,1.4512,1.4548,1.4464
2011-08-30,1.4462,1.4533,1.4383
2011-08-31,1.4379,1.4468,1.4358
2011-09-01,1.427,1.4381,1.4224
2011-09-02,1.4192,1.4288,1.4182
2011-09-05,1.4092,1.4172,1.4059
2011-09-06,1.3996,1.4275,1.3971
2011-09-07,1.409,1.4148,1.3992
2011-09-08,1.3892,1.4095,1.3873
2011-09-09,1.3663,1.3936,1.3626
2011-09-12,1.3616,1.3692,1.3495
2011-09-13,1.3695,1.3739,1.3556
2011-09-14,1.3768,1.3783,1.3589
2011-09-15,1.3878,1.3936,1.3701
2011-09-16,1.3791,1.3884,1.3752
2011-09-19,1.3698,1.3719,1.3585
2011-09-20,1.3665,1.3744,1.3591
2011-09-21,1.3607,1.3799,1.3602
2011-09-22,1.3462,1.3601,1.3382
2011-09-23,1.3502,1.3567,1.3415
2011-09-26,1.3495,1.3549,1.3361
2011-09-27,1.3596,1.3668,1.3477
2011-09-28,1.355,1.3689,1.3539
2011-09-29,1.3585,1.3678,1.3518
2011-09-30,1.3395,1.3602,1.3392
2011-10-03,1.3224,1.3381,1.319
2011-10-04,1.3343,1.3366,1.3144
2011-10-05,1.3342,1.3383,1.3257
2011-10-06,1.3443,1.3449,1.324
2011-10-07,1.3395,1.3524,1.3359
2011-10-10,1.3637,1.3698,1.3376
2011-10-11,1.3674,1.3684,1.3564
2011-10-12,1.3803,1.3833,1.358
2011-10-13,1.379,1.3827,1.3683
2011-10-14,1.3875,1.3894,1.372
2011-10-17,1.3748,1.3914,1.3729
2011-10-18,1.3788,1.3817,1.3651
2011-10-19,1.375,1.3869,1.3723
2011-10-20,1.3784,1.3842,1.3655
2011-10-21,1.3869,1.39,1.3703
2011-10-24,1.3925,1.3956,1.382
2011-10-25,1.391,1.3959,1.3847
2011-10-26,1.3902,1.3974,1.3796
2011-10-27,1.4179,1.4247,1.3863
2011-10-28,1.4165,1.42,1.4132
2011-10-31,1.384,1.4169,1.3827
2011-11-01,1.3678,1.3871,1.3608
2011-11-02,1.3745,1.3829,1.3635
2011-11-03,1.3831,1.3854,1.3654
2011-11-04,1.3769,1.3866,1.371
2011-11-07,1.377,1.3837,1.3679
2011-11-08,1.3837,1.3847,1.3722
2011-11-09,1.3546,1.3858,1.3522
2011-11-10,1.3595,1.3652,1.3481
2011-11-11,1.3746,1.3795,1.3576
2011-11-14,1.3637,1.3811,1.359
2011-11-15,1.3541,1.364,1.3495
2011-11-16,1.3484,1.3558,1.3427
2011-11-17,1.3463,1.3539,1.342
2011-11-18,1.3517,1.3614,1.3445
2011-11-21,1.3505,1.354,1.3429
2011-11-22,1.351,1.3568,1.3467
2011-11-23,1.3356,1.3531,1.3318
2011-11-24,1.3338,1.3411,1.3315
2011-11-25,1.3233,1.3355,1.321
2011-11-28,1.3294,1.3398,1.3271
2011-11-29,1.3327,1.3442,1.3284
2011-11-30,1.344,1.3531,1.3257
2011-12-01,1.3456,1.3521,1.3415
2011-12-02,1.3402,1.3548,1.3361
2011-12-05,1.3392,1.3486,1.3374
2011-12-06,1.3401,1.3427,1.3332
2011-12-07,1.3413,1.3454,1.3349
2011-12-08,1.3331,1.3459,1.3288
2011-12-09,1.337,1.3433,1.328
2011-12-12,1.3185,1.3385,1.3161
2011-12-13,1.3027,1.3236,1.3007
2011-12-14,1.2984,1.3063,1.2944
2011-12-15,1.3016,1.3049,1.2955
2011-12-16,1.3034,1.3084,1.2994
2011-12-19,1.2996,1.3043,1.298
2011-12-20,1.3076,1.3131,1.2992
2011-12-21,1.3043,1.3197,1.3023
2011-12-22,1.3051,1.3119,1.3015
2011-12-23,1.3038,1.3095,1.3024
2011-12-26,1.3059,1.3082,1.303
2011-12-27,1.3066,1.3083,1.304
2011-12-28,1.2938,1.308,1.291
2011-12-29,1.2961,1.2962,1.2856
2011-12-30,1.2941,1.2998,1.2902
2012-01-02,1.2922,1.2967,1.2915
2012-01-03,1.305,1.3076,1.293
2012-01-04,1.2947,1.3072,1.2896
2012-01-05,1.2779,1.2947,1.277
2012-01-06,1.2721,1.2812,1.2696
2012-01-09,1.2769,1.2785,1.2664
2012-01-10,1.2774,1.2818,1.2741
2012-01-11,1.2705,1.2789,1.2661
2012-01-12,1.2825,1.2844,1.2697
2012-01-13,1.2684,1.2878,1.2623
2012-01-16,1.2675,1.2687,1.2624
2012-01-17,1.2723,1.2808,1.2647
2012-01-18,1.2849,1.2863,1.2732
2012-01-19,1.2957,1.2958,1.2837
2012-01-20,1.2928,1.2986,1.2886
2012-01-23,1.3033,1.3052,1.2869
2012-01-24,1.3023,1.3062,1.2952
2012-01-25,1.311,1.312,1.2929
2012-01-26,1.3105,1.3184,1.3088
2012-01-27,1.3215,1.3233,1.3075
2012-01-30,1.3117,1.323,1.3074
2012-01-31,1.3083,1.3213,1.3041
2012-02-01,1.3153,1.3218,1.3023
2012-02-02,1.3147,1.3196,1.3083
2012-02-03,1.3146,1.3205,1.3065
2012-02-06,1.3131,1.3141,1.3026
2012-02-07,1.3244,1.327,1.3086
2012-02-08,1.326,1.329,1.3218
2012-02-09,1.3284,1.3321,1.3213
2012-02-10,1.3166,1.3291,1.3153
2012-02-13,1.3191,1.3283,1.3186
2012-02-14,1.3115,1.3216,1.3078
2012-02-15,1.3074,1.319,1.3043
2012-02-16,1.3153,1.3159,1.2973
2012-02-17,1.3157,1.3198,1.3113
2012-02-20,1.3241,1.3276,1.3172
2012-02-21,1.3236,1.3292,1.3184
2012-02-22,1.3245,1.3266,1.3209
2012-02-23,1.3365,1.3373,1.3229
2012-02-24,1.3463,1.3486,1.3355
2012-02-27,1.34,1.3478,1.3364
2012-02-28,1.3461,1.347,1.3388
2012-02-29,1.3322,1.3485,1.3313
2012-03-01,1.3306,1.3356,1.328
2012-03-02,1.3207,1.3332,1.3185
2012-03-05,1.3221,1.324,1.3158
2012-03-06,1.3112,1.3226,1.3101
2012-03-07,1.3148,1.3164,1.3095
2012-03-08,1.3266,1.3291,1.3133
2012-03-09,1.3114,1.3283,1.3095
2012-03-12,1.315,1.3157,1.3079
2012-03-13,1.3071,1.3191,1.3052
2012-03-14,1.302,1.309,1.301
2012-03-15,1.3094,1.3119,1.3004
2012-03-16,1.3168,1.3187,1.3049
2012-03-19,1.3236,1.3265,1.3141
2012-03-20,1.3217,1.3252,1.3172
2012-03-21,1.3207,1.3285,1.3178
2012-03-22,1.3187,1.3254,1.3134
2012-03-23,1.3262,1.3293,1.319
2012-03-26,1.3361,1.3368,1.319
2012-03-27,1.3329,1.3385,1.3317
2012-03-28,1.3321,1.3374,1.3276
2012-03-29,1.3293,1.3346,1.3252
2012-03-30,1.3336,1.3377,1.3298
2012-04-02,1.3328,1.338,1.3279
2012-04-03,1.3229,1.3368,1.3212
2012-04-04,1.3139,1.3239,1.3107
2012-04-05,1.3064,1.3164,1.3035
2012-04-06,1.3088,1.3113,1.3052
2012-04-09,1.3117,1.3134,1.3031
2012-04-10,1.3076,1.3144,1.3053
2012-04-11,1.3102,1.3157,1.3067
2012-04-12,1.3187,1.3213,1.3102
2012-04-13,1.3072,1.3201,1.3068
2012-04-16,1.3138,1.3148,1.2995
2012-04-17,1.313,1.3173,1.309
2012-04-18,1.3114,1.3141,1.3058
2012-04-19,1.3134,1.3165,1.307
2012-04-20,1.3215,1.3225,1.3129
2012-04-23,1.3154,1.3217,1.3105
2012-04-24,1.3182,1.3218,1.3145
2012-04-25,1.3214,1.3236,1.3173
2012-04-26,1.324,1.3263,1.3199
2012-04-27,1.3247,1.327,1.3158
2012-04-30,1.3236,1.3267,1.3208
2012-05-01,1.3235,1.3284,1.3204
2012-05-02,1.3156,1.3241,1.3122
2012-05-03,1.315,1.318,1.3096
2012-05-04,1.3089,1.3178,1.308
2012-05-07,1.3058,1.3064,1.2956
2012-05-08,1.3016,1.3066,1.298
2012-05-09,1.2942,1.3006,1.2912
2012-05-10,1.2946,1.298,1.2925
2012-05-11,1.2922,1.2958,1.2904
2012-05-14,1.2839,1.2907,1.2824
2012-05-15,1.2728,1.287,1.2718
2012-05-16,1.2723,1.2759,1.2682
2012-05-17,1.27,1.2749,1.2666
2012-05-18,1.2773,1.2794,1.2643
2012-05-21,1.2816,1.2825,1.2723
2012-05-22,1.2676,1.2817,1.2655
2012-05-23,1.2584,1.2688,1.2545
2012-05-24,1.2533,1.262,1.2516
2012-05-25,1.2518,1.2603,1.2496
2012-05-28,1.2543,1.2624,1.2524
2012-05-29,1.2493,1.2575,1.2461
2012-05-30,1.2373,1.2494,1.236
2012-05-31,1.2375,1.243,1.2337
2012-06-01,1.2408,1.2459,1.2289
2012-06-04,1.2496,1.251,1.2386
2012-06-05,1.2446,1.2542,1.241
2012-06-06,1.2572,1.2583,1.244
2012-06-07,1.2582,1.2626,1.254
2012-06-08,1.2501,1.2575,1.2436
2012-06-11,1.2483,1.2668,1.248
2012-06-12,1.2499,1.253,1.2442
2012-06-13,1.2571,1.261,1.2474
2012-06-14,1.2614,1.2635,1.2543
2012-06-15,1.2645,1.2664,1.2592
2012-06-18,1.2577,1.2747,1.2556
2012-06-19,1.2691,1.2731,1.2569
2012-06-20,1.267,1.2743,1.2638
2012-06-21,1.2545,1.2701,1.2532
2012-06-22,1.2565,1.2583,1.252
2012-06-25,1.25,1.2569,1.2472
2012-06-26,1.2499,1.2531,1.2442
2012-06-27,1.2469,1.2508,1.2446
2012-06-28,1.2445,1.2524,1.2408
2012-06-29,1.2654,1.2693,1.2433
2012-07-02,1.2583,1.268,1.2569
2012-07-03,1.2607,1.2627,1.2559
2012-07-04,1.2533,1.2607,1.2508
2012-07-05,1.2389,1.254,1.2364
2012-07-06,1.2275,1.2401,1.2259
2012-07-09,1.231,1.2324,1.2225
2012-07-10,1.2252,1.2334,1.2236
2012-07-11,1.2233,1.2297,1.2212
2012-07-12,1.221,1.2249,1.2165
2012-07-13,1.224,1.2257,1.216
2012-07-16,1.2279,1.229,1.2176
2012-07-17,1.2281,1.2317,1.2188
2012-07-18,1.2276,1.2306,1.2215
2012-07-19,1.2271,1.2324,1.2228
2012-07-20,1.2164,1.2283,1.2144
2012-07-23,1.2134,1.2145,1.2068
2012-07-24,1.2064,1.2138,1.2041
2012-07-25,1.2152,1.2171,1.2054
2012-07-26,1.2282,1.233,1.2115
2012-07-27,1.2317,1.239,1.224
2012-07-30,1.2253,1.2339,1.2226
2012-07-31,1.2308,1.233,1.2247
2012-08-01,1.2239,1.2336,1.2218
2012-08-02,1.2176,1.2405,1.2131
2012-08-03,1.2379,1.2392,1.2167
2012-08-06,1.2412,1.2443,1.2339
2012-08-07,1.2405,1.2442,1.2373
2012-08-08,1.2358,1.2402,1.2326
2012-08-09,1.2292,1.2387,1.2266
2012-08-10,1.2293,1.2317,1.2242
2012-08-13,1.2332,1.2374,1.2258
2012-08-14,1.2324,1.2386,1.2314
2012-08-15,1.2287,1.2344,1.226
2012-08-16,1.2362,1.2373,1.2256
2012-08-17,1.2318,1.2382,1.2288
2012-08-20,1.2344,1.237,1.2294
2012-08-21,1.2465,1.2488,1.2347
2012-08-22,1.2518,1.2538,1.2432
2012-08-23,1.2561,1.259,1.2524
2012-08-24,1.2516,1.2569,1.2482
2012-08-27,1.2496,1.2536,1.249
2012-08-28,1.2563,1.2577,1.2466
2012-08-29,1.2528,1.2574,1.2518
2012-08-30,1.2515,1.2564,1.2487
2012-08-31,1.2578,1.2637,1.2494
2012-09-03,1.2593,1.2611,1.2554
2012-09-04,1.257,1.2628,1.2554
2012-09-05,1.2598,1.2624,1.2501
2012-09-06,1.2639,1.2652,1.256
2012-09-07,1.2798,1.2807,1.2623
2012-09-10,1.2761,1.2812,1.2755
2012-09-11,1.2855,1.2871,1.2758
2012-09-12,1.2895,1.2937,1.2816
2012-09-13,1.2988,1.3002,1.2855
2012-09-14,1.3122,1.3169,1.2977
2012-09-17,1.3101,1.3172,1.3081
2012-09-18,1.3035,1.3119,1.3027
2012-09-19,1.3056,1.3085,1.2991
2012-09-20,1.2969,1.3059,1.2919
2012-09-21,1.2989,1.3048,1.2955
2012-09-24,1.2927,1.299,1.289
2012-09-25,1.2906,1.2971,1.2886
2012-09-26,1.2857,1.2913,1.2836
2012-09-27,1.2914,1.2928,1.2829
2012-09-28,1.2844,1.296,1.2838
2012-10-01,1.288,1.2939,1.2804
2012-10-02,1.2919,1.2968,1.288
2012-10-03,1.29,1.2937,1.2878
2012-10-04,1.3014,1.3031,1.2908
2012-10-05,1.3017,1.3071,1.2994
2012-10-08,1.2972,1.3027,1.2938
2012-10-09,1.2873,1.2991,1.2858
2012-10-10,1.2894,1.2913,1.2836
2012-10-11,1.293,1.2952,1.2826
2012-10-12,1.2956,1.2992,1.2923
2012-10-15,1.2951,1.298,1.2891
2012-10-16,1.3045,1.3061,1.2943
2012-10-17,1.3123,1.314,1.3084
2012-10-18,1.3068,1.313,1.3054
2012-10-19,1.3021,1.3078,1.3012
2012-10-22,1.3049,1.3083,1.3016
2012-10-23,1.2977,1.3076,1.2951
2012-10-24,1.2964,1.2997,1.292
2012-10-25,1.2945,1.3023,1.2938
2012-10-26,1.2934,1.2956,1.2883
2012-10-29,1.2898,1.2968,1.2883
2012-10-30,1.2962,1.2983,1.2886
2012-10-31,1.292,1.302,1.2942
2012-11-01,1.2936,1.2983,1.2923
2012-11-02,1.2832,1.2951,1.2819
2012-11-05,1.2794,1.2842,1.2766
2012-11-06,1.281,1.2827,1.2763
2012-11-07,1.2765,1.2876,1.2734
2012-11-08,1.2745,1.278,1.2717
2012-11-09,1.2711,1.279,1.2689
2012-11-12,1.271,1.2739,1.2698
2012-11-13,1.2705,1.2728,1.2662
2012-11-14,1.2732,1.2779,1.27
2012-11-15,1.2763,1.2802,1.2718
2012-11-16,1.2734,1.2785,1.2691
2012-11-19,1.2804,1.282,1.2734
2012-11-20,1.2815,1.283,1.2765
2012-11-21,1.2825,1.2833,1.2737
2012-11-22,1.2871,1.2899,1.2826
2012-11-23,1.2982,1.2991,1.2869
2012-11-26,1.297,1.2985,1.2945
2012-11-27,1.2932,1.3009,1.2914
2012-11-28,1.2934,1.2946,1.2879
2012-11-29,1.2973,1.3014,1.2939
2012-11-30,1.3006,1.3027,1.2966
2012-12-03,1.3051,1.3076,1.2973
2012-12-04,1.3098,1.3108,1.3046
2012-12-05,1.3079,1.3126,1.3058
2012-12-06,1.2965,1.3087,1.2951
2012-12-07,1.2927,1.2974,1.2877
2012-12-10,1.2935,1.2943,1.2885
2012-12-11,1.3002,1.3015,1.2929
2012-12-12,1.3064,1.3097,1.2996
2012-12-13,1.3073,1.31,1.3041
2012-12-14,1.3154,1.3173,1.3066
2012-12-17,1.316,1.3188,1.3143
2012-12-18,1.3224,1.3238,1.3156
2012-12-19,1.3247,1.3308,1.3223
2012-12-20,1.3243,1.3295,1.3189
2012-12-21,1.3178,1.3252,1.3154
2012-12-24,1.3173,1.3234,1.317
2012-12-25,1.3191,1.3207,1.3167
2012-12-26,1.3218,1.3254,1.3167
2012-12-27,1.3242,1.3284,1.3199
2012-12-28,1.3219,1.3257,1.3166
2012-12-31,1.3188,1.3235,1.317
2013-01-01,1.3219,1.322,1.319
2013-01-02,1.3177,1.3299,1.3154
2013-01-03,1.305,1.3191,1.3049
2013-01-04,1.308,1.3089,1.2995
2013-01-07,1.3106,1.3119,1.3016
2013-01-08,1.3083,1.314,1.3057
2013-01-09,1.3064,1.3096,1.3035
2013-01-10,1.3254,1.3266,1.3039
2013-01-11,1.3334,1.3365,1.3246
2013-01-14,1.3387,1.3404,1.3336
2013-01-15,1.3311,1.3394,1.3264
2013-01-16,1.3282,1.3325,1.3256
2013-01-17,1.3374,1.3388,1.327
2013-01-18,1.3318,1.34,1.3279
2013-01-21,1.3317,1.3332,1.33
2013-01-22,1.3313,1.3371,1.3267
2013-01-23,1.3315,1.3355,1.3264
2013-01-24,1.3375,1.3393,1.3287
2013-01-25,1.3458,1.348,1.335
2013-01-28,1.3454,1.3477,1.3425
2013-01-29,1.3491,1.3497,1.3413
2013-01-30,1.3566,1.3587,1.3482
2013-01-31,1.3577,1.3594,1.3538
2013-02-01,1.3651,1.3711,1.3574
2013-02-04,1.3511,1.3659,1.3503
2013-02-05,1.3584,1.3597,1.3459
2013-02-06,1.3522,1.3596,1.3494
2013-02-07,1.3396,1.3577,1.3371
2013-02-08,1.3363,1.3429,1.335
2013-02-11,1.3398,1.3427,1.3337
2013-02-12,1.3447,1.3475,1.3364
2013-02-13,1.345,1.352,1.3424
2013-02-14,1.3354,1.3456,1.3315
2013-02-15,1.3362,1.3393,1.3304
2013-02-18,1.3349,1.3379,1.3322
2013-02-19,1.339,1.3396,1.3326
2013-02-20,1.3283,1.3434,1.3273
2013-02-21,1.3182,1.329,1.316
2013-02-22,1.3184,1.3245,1.3146
2013-02-25,1.3089,1.3318,1.3069
2013-02-26,1.3054,1.3122,1.3019
2013-02-27,1.3136,1.314,1.3042
2013-02-28,1.3064,1.3162,1.305
2013-03-01,1.3024,1.3101,1.2965
2013-03-04,1.3017,1.3031,1.298
2013-03-05,1.3039,1.3075,1.3011
2013-03-06,1.2991,1.3071,1.2983
2013-03-07,1.3106,1.3118,1.2967
2013-03-08,1.2997,1.3134,1.2954
2013-03-11,1.3031,1.3043,1.298
2013-03-12,1.3034,1.3074,1.2991
2013-03-13,1.296,1.3065,1.2921
2013-03-14,1.3005,1.3032,1.291
2013-03-15,1.3059,1.3107,1.3
2013-03-18,1.2934,1.3071,1.2882
2013-03-19,1.2888,1.297,1.2843
2013-03-20,1.294,1.2978,1.2857
2013-03-21,1.2904,1.2955,1.288
2013-03-22,1.2981,1.301,1.2889
2013-03-25,1.2857,1.3048,1.283
2013-03-26,1.2858,1.289,1.2829
2013-03-27,1.277,1.2867,1.2751
2013-03-28,1.2817,1.2845,1.2756
2013-03-29,1.2813,1.2837,1.2794
2013-04-01,1.2845,1.2868,1.2771
2013-04-02,1.2814,1.2878,1.2807
2013-04-03,1.2846,1.2864,1.279
2013-04-04,1.2933,1.2949,1.2744
2013-04-05,1.301,1.304,1.29
2013-04-08,1.2995,1.3038,1.2966
2013-04-09,1.3083,1.3103,1.3005
2013-04-10,1.3057,1.3122,1.3049
2013-04-11,1.3111,1.3138,1.3044
2013-04-12,1.3103,1.3126,1.3036
2013-04-15,1.304,1.3131,1.3032
2013-04-16,1.3184,1.3201,1.3028
2013-04-17,1.3022,1.32,1.2999
2013-04-18,1.3053,1.3096,1.3021
2013-04-19,1.3053,1.3129,1.3048
2013-04-22,1.306,1.3092,1.3014
2013-04-23,1.2996,1.3084,1.297
2013-04-24,1.3018,1.3034,1.2956
2013-04-25,1.3005,1.3093,1.2988
2013-04-26,1.303,1.3048,1.2988
2013-04-29,1.3093,1.3117,1.3032
2013-04-30,1.3167,1.3186,1.3055
2013-05-01,1.3175,1.3243,1.3161
2013-05-02,1.3063,1.3218,1.3036
2013-05-03,1.3114,1.3159,1.3032
2013-05-06,1.3075,1.3141,1.305
2013-05-07,1.3073,1.3132,1.3067
2013-05-08,1.3154,1.3194,1.3072
2013-05-09,1.3033,1.3177,1.3008
2013-05-10,1.2985,1.3051,1.2933
2013-05-13,1.2968,1.2999,1.294
2013-05-14,1.294,1.3029,1.2929
2013-05-15,1.288,1.2942,1.2841
2013-05-16,1.2874,1.293,1.2847
2013-05-17,1.2829,1.289,1.2797
2013-05-20,1.2887,1.2901,1.282
2013-05-21,1.2909,1.2934,1.2839
2013-05-22,1.2852,1.2998,1.283
2013-05-23,1.2931,1.2956,1.2822
2013-05-24,1.2934,1.2993,1.2905
2013-05-27,1.2929,1.295,1.2916
2013-05-28,1.2871,1.295,1.285
2013-05-29,1.2936,1.2977,1.2838
2013-05-30,1.3047,1.3061,1.2934
2013-05-31,1.2997,1.3059,1.2942
2013-06-03,1.3074,1.3107,1.2954
2013-06-04,1.3082,1.3101,1.3041
2013-06-05,1.3094,1.3116,1.3052
2013-06-06,1.3243,1.3305,1.3075
2013-06-07,1.3216,1.3285,1.3191
2013-06-10,1.3257,1.3269,1.3178
2013-06-11,1.3305,1.3315,1.3232
2013-06-12,1.3332,1.336,1.3264
2013-06-13,1.3366,1.339,1.3278
2013-06-14,1.3348,1.3373,1.3295
2013-06-17,1.3376,1.3379,1.3319
2013-06-18,1.3401,1.3415,1.3325
2013-06-19,1.3277,1.3417,1.326
2013-06-20,1.322,1.3302,1.3161
2013-06-21,1.3124,1.3254,1.3097
2013-06-24,1.313,1.3144,1.3058
2013-06-25,1.3097,1.3151,1.3065
2013-06-26,1.3012,1.3087,1.2983
2013-06-27,1.3043,1.3057,1.2999
2013-06-28,1.3015,1.3103,1.2989
2013-07-01,1.3063,1.3068,1.3006
2013-07-02,1.2978,1.308,1.2964
2013-07-03,1.3006,1.3032,1.2923
2013-07-04,1.2918,1.3023,1.2884
2013-07-05,1.283,1.2917,1.2805
2013-07-08,1.2868,1.2882,1.2812
2013-07-09,1.2787,1.2898,1.2754
2013-07-10,1.3023,1.3024,1.2761
2013-07-11,1.3114,1.3207,1.3002
2013-07-12,1.3065,1.31,1.2999
2013-07-15,1.3069,1.3078,1.2995
2013-07-16,1.316,1.3174,1.3052
2013-07-17,1.3119,1.3177,1.3082
2013-07-18,1.3105,1.3126,1.3066
2013-07-19,1.3142,1.3154,1.309
2013-07-22,1.3186,1.3218,1.3136
2013-07-23,1.3221,1.3239,1.3162
2013-07-24,1.3196,1.3256,1.3176
2013-07-25,1.3291,1.3296,1.3166
2013-07-26,1.3281,1.33,1.3251
2013-07-29,1.3265,1.3295,1.3237
2013-07-30,1.3262,1.3302,1.3233
2013-07-31,1.3301,1.3344,1.3203
2013-08-01,1.3206,1.3311,1.3194
2013-08-02,1.3281,1.3294,1.3188
2013-08-05,1.3258,1.33,1.3233
2013-08-06,1.3309,1.3323,1.3246
2013-08-07,1.3339,1.3342,1.3266
2013-08-08,1.338,1.34,1.3328
2013-08-09,1.3344,1.339,1.3333
2013-08-12,1.3308,1.3344,1.3277
2013-08-13,1.3264,1.3317,1.323
2013-08-14,1.3259,1.328,1.3236
2013-08-15,1.3355,1.3362,1.3205
2013-08-16,1.3332,1.338,1.3308
2013-08-19,1.334,1.3375,1.3315
2013-08-20,1.3419,1.3452,1.3324
2013-08-21,1.3365,1.3427,1.3336
2013-08-22,1.335,1.3373,1.3299
2013-08-23,1.3383,1.341,1.3333
2013-08-26,1.3375,1.3394,1.3354
2013-08-27,1.3389,1.34,1.3323
2013-08-28,1.3341,1.3398,1.3305
2013-08-29,1.3243,1.3345,1.3218
2013-08-30,1.3216,1.3255,1.3174
2013-09-02,1.3184,1.3235,1.3181
2013-09-03,1.3171,1.3197,1.3139
2013-09-04,1.3212,1.3218,1.3157
2013-09-05,1.3117,1.3223,1.3109
2013-09-06,1.3178,1.3188,1.3103
2013-09-09,1.3257,1.3281,1.3161
2013-09-10,1.3269,1.3276,1.3229
2013-09-11,1.3308,1.3324,1.3244
2013-09-12,1.33,1.3325,1.3257
2013-09-13,1.3303,1.3322,1.3254
2013-09-16,1.3336,1.3386,1.3299
2013-09-17,1.3354,1.337,1.3321
2013-09-18,1.3529,1.3542,1.3338
2013-09-19,1.3529,1.357,1.3501
2013-09-20,1.3522,1.355,1.3496
2013-09-23,1.3497,1.3553,1.3477
2013-09-24,1.347,1.3519,1.3465
2013-09-25,1.3528,1.3537,1.3462
2013-09-26,1.348,1.3526,1.3473
2013-09-27,1.3521,1.3564,1.3474
2013-09-30,1.3519,1.3556,1.3465
2013-10-01,1.3534,1.35878,1.3513
2013-10-02,1.3587,1.36071,1.3503
2013-10-03,1.3617,1.3646,1.3574
2013-10-04,1.3554,1.36317,1.3535
2013-10-07,1.3574,1.3591,1.3539
2013-10-08,1.3575,1.36071,1.3554
2013-10-09,1.3518,1.3605,1.3483
2013-10-10,1.3527,1.3546,1.3485
2013-10-11,1.355,1.35817,1.3515
2013-10-14,1.3565,1.35976,1.3541
2013-10-15,1.3517,1.3571,1.3476
2013-10-16,1.3528,1.35675,1.347
2013-10-17,1.3675,1.36817,1.3512
2013-10-18,1.3678,1.3704,1.3656
2013-10-21,1.3678,1.36885,1.3647
2013-10-22,1.3778,1.3792,1.3658
2013-10-23,1.3779,1.3793,1.3739
2013-10-24,1.3801,1.3827,1.376
2013-10-25,1.3809,1.3832,1.3772
2013-10-28,1.3803,1.3818,1.3772
2013-10-29,1.3742,1.3813,1.3734
2013-10-30,1.3728,1.3785,1.3694
2013-10-31,1.3585,1.3739,1.3582
2013-11-01,1.3489,1.359,1.3478
2013-11-04,1.3519,1.3524,1.3439
2013-11-05,1.3471,1.3522,1.3447
2013-11-06,1.3521,1.3547,1.3465
2013-11-07,1.342,1.3529,1.3294
2013-11-08,1.336,1.3438,1.3316
2013-11-11,1.3408,1.3416,1.3342
2013-11-12,1.3428,1.3456,1.3357
2013-11-13,1.3462,1.3471,1.3388
2013-11-14,1.346,1.3494,1.3416
2013-11-15,1.3493,1.3506,1.343
2013-11-18,1.3497,1.3542,1.3472
2013-11-19,1.3535,1.3547,1.3485
2013-11-20,1.3426,1.358,1.3413
2013-11-21,1.3465,1.348,1.3397
2013-11-22,1.3548,1.3554,1.3459
2013-11-25,1.3519,1.356,1.3488
2013-11-26,1.3569,1.3575,1.3518
2013-11-27,1.3571,1.3613,1.3555
2013-11-28,1.3601,1.3618,1.3561
2013-11-29,1.3587,1.3622,1.358
2013-12-02,1.3537,1.3616,1.3523
2013-12-03,1.3591,1.3614,1.3522
2013-12-04,1.3585,1.3605,1.3526
2013-12-05,1.3671,1.3677,1.3542
2013-12-06,1.3702,1.3706,1.3618
2013-12-09,1.3738,1.3746,1.3692
2013-12-10,1.3765,1.3795,1.3732
2013-12-11,1.3788,1.3811,1.3739
2013-12-12,1.3745,1.3803,1.3736
2013-12-13,1.3732,1.377,1.3707
2013-12-16,1.3764,1.3799,1.3734
2013-12-17,1.3767,1.3782,1.3721
2013-12-18,1.3696,1.3812,1.3693
2013-12-19,1.3655,1.3694,1.3647
2013-12-20,1.3677,1.3709,1.3622
2013-12-23,1.3693,1.3717,1.3669
2013-12-24,1.3675,1.3699,1.3653
2013-12-25,1.3695,1.3705,1.3659
2013-12-26,1.3692,1.3702,1.3661
2013-12-27,1.374,1.3893,1.3687
2013-12-30,1.3798,1.382,1.3726
2013-12-31,1.3774,1.3812,1.3757
2014-01-01,1.3745,1.3754,1.3744
2014-01-02,1.3655,1.3775,1.3627
2014-01-03,1.3587,1.3672,1.3583
2014-01-06,1.3634,1.3653,1.3569
2014-01-07,1.3614,1.366,1.3594
2014-01-08,1.3581,1.3635,1.3551
2014-01-09,1.3607,1.3633,1.3547
2014-01-10,1.3665,1.3687,1.3568
2014-01-13,1.3668,1.3685,1.3634
2014-01-14,1.3681,1.37,1.3646
2014-01-15,1.3604,1.3681,1.3579
2014-01-16,1.3617,1.3649,1.3581
2014-01-17,1.3524,1.3621,1.3515
2014-01-20,1.3562,1.357,1.3506
2014-01-21,1.3558,1.3569,1.3514
2014-01-22,1.3548,1.3583,1.3532
2014-01-23,1.3694,1.3698,1.3528
2014-01-24,1.368,1.3739,1.366
2014-01-27,1.3672,1.3717,1.365
2014-01-28,1.3666,1.3688,1.3626
2014-01-29,1.3661,1.3685,1.36
2014-01-30,1.355,1.3664,1.3541
2014-01-31,1.3487,1.3573,1.3477
2014-02-03,1.3531,1.3536,1.3475
2014-02-04,1.3515,1.3539,1.3491
2014-02-05,1.3531,1.3555,1.3497
2014-02-06,1.3588,1.362,1.3481
2014-02-07,1.3638,1.3643,1.355
2014-02-10,1.3634,1.3651,1.3615
2014-02-11,1.3637,1.3683,1.3626
2014-02-12,1.3592,1.3653,1.3559
2014-02-13,1.368,1.3692,1.3582
2014-02-14,1.3697,1.3715,1.3671
2014-02-17,1.3708,1.3724,1.3689
2014-02-18,1.3757,1.377,1.3691
2014-02-19,1.3733,1.3773,1.3722
2014-02-20,1.372,1.3763,1.3684
2014-02-21,1.374,1.3758,1.37
2014-02-24,1.3734,1.3771,1.3705
2014-02-25,1.3742,1.3767,1.3713
2014-02-26,1.3685,1.3757,1.3659
2014-02-27,1.3707,1.3727,1.364
2014-02-28,1.3806,1.3825,1.369
2014-03-03,1.3729,1.3793,1.3723
2014-03-04,1.3738,1.3782,1.3718
2014-03-05,1.3732,1.3749,1.3705
2014-03-06,1.3859,1.3873,1.3719
2014-03-07,1.3869,1.3915,1.385
2014-03-10,1.3869,1.3898,1.3858
2014-03-11,1.3864,1.3879,1.3831
2014-03-12,1.3906,1.3915,1.3841
2014-03-13,1.3859,1.3967,1.3843
2014-03-14,1.3908,1.3937,1.3845
2014-03-17,1.3923,1.3947,1.3877
2014-03-18,1.3934,1.3943,1.3878
2014-03-19,1.3829,1.3934,1.3808
2014-03-20,1.3775,1.3845,1.3747
2014-03-21,1.3796,1.3811,1.3763
2014-03-24,1.384,1.3876,1.3758
2014-03-25,1.3824,1.3847,1.3747
2014-03-26,1.3793,1.3828,1.3774
2014-03-27,1.3744,1.3797,1.3726
2014-03-28,1.375,1.3773,1.3703
2014-03-31,1.3781,1.3809,1.3721
2014-04-01,1.3793,1.3815,1.3767
2014-04-02,1.3762,1.382,1.375
2014-04-03,1.3715,1.3807,1.3695
2014-04-04,1.3705,1.3731,1.367
2014-04-07,1.3743,1.375,1.3694
2014-04-08,1.3794,1.3812,1.3734
2014-04-09,1.3851,1.3858,1.3777
2014-04-10,1.3887,1.39,1.3833
2014-04-11,1.3882,1.3906,1.386
2014-04-14,1.382,1.3863,1.3806
2014-04-15,1.3813,1.3833,1.3788
2014-04-16,1.3813,1.3851,1.3801
2014-04-17,1.3814,1.3865,1.3808
2014-04-18,1.3818,1.3822,1.3806
2014-04-21,1.3793,1.383,1.3785
2014-04-22,1.3804,1.3825,1.3782
2014-04-23,1.3816,1.3855,1.3798
2014-04-24,1.3827,1.3843,1.3788
2014-04-25,1.3832,1.385,1.3825
2014-04-28,1.3848,1.388,1.3813
2014-04-29,1.3811,1.388,1.3802
2014-04-30,1.387,1.3877,1.3772
2014-05-01,1.3865,1.3889,1.3859
2014-05-02,1.387,1.3881,1.381
2014-05-05,1.3876,1.3886,1.3862
2014-05-06,1.3928,1.3951,1.3869
2014-05-07,1.3912,1.394,1.3909
2014-05-08,1.3852,1.3993,1.3847
2014-05-09,1.3754,1.3844,1.3744
2014-05-12,1.3757,1.3775,1.3747
2014-05-13,1.3701,1.3772,1.3687
2014-05-14,1.371,1.3731,1.3694
2014-05-15,1.371,1.3733,1.3646
2014-05-16,1.37,1.3727,1.3682
2014-05-19,1.3709,1.3734,1.3692
2014-05-20,1.3698,1.3714,1.3675
2014-05-21,1.3685,1.3723,1.3633
2014-05-22,1.3654,1.3688,1.3643
2014-05-23,1.363,1.3656,1.3613
2014-05-26,1.3645,1.3654,1.3611
2014-05-27,1.3636,1.3669,1.361
2014-05-28,1.3594,1.364,1.3587
2014-05-29,1.3602,1.3626,1.3584
2014-05-30,1.3631,1.365,1.3596
2014-06-02,1.3597,1.3643,1.3586
2014-06-03,1.3625,1.3648,1.3585
2014-06-04,1.3599,1.364,1.3594
2014-06-05,1.3653,1.367,1.3501
2014-06-06,1.3644,1.3677,1.3618
2014-06-09,1.3587,1.367,1.358
2014-06-10,1.3545,1.3602,1.353
2014-06-11,1.3529,1.3557,1.3518
2014-06-12,1.3564,1.3572,1.3509
2014-06-13,1.3538,1.358,1.3518
2014-06-16,1.357,1.358,1.3511
2014-06-17,1.3543,1.3587,1.3534
2014-06-18,1.358,1.3599,1.3538
2014-06-19,1.3602,1.3643,1.3581
2014-06-20,1.3595,1.3634,1.3562
2014-06-23,1.3603,1.3614,1.3571
2014-06-24,1.3601,1.3628,1.3581
2014-06-25,1.363,1.3651,1.3598
2014-06-26,1.3607,1.3641,1.3574
2014-06-27,1.3646,1.3648,1.3607
2014-06-30,1.3693,1.3698,1.3637
2014-07-01,1.3677,1.3701,1.3673
2014-07-02,1.3655,1.3683,1.3639
2014-07-03,1.3603,1.3664,1.3594
2014-07-04,1.3594,1.3611,1.3582
2014-07-07,1.3607,1.3609,1.3573
2014-07-08,1.3612,1.362,1.3585
2014-07-09,1.3644,1.3648,1.3599
2014-07-10,1.3603,1.3651,1.3587
2014-07-11,1.3608,1.3625,1.359
2014-07-14,1.3619,1.364,1.3595
2014-07-15,1.3567,1.363,1.3559
2014-07-16,1.3523,1.3571,1.3521
2014-07-17,1.3528,1.354,1.3517
2014-07-18,1.3526,1.3536,1.3491
2014-07-21,1.3521,1.3549,1.3513
2014-07-22,1.3468,1.353,1.3459
2014-07-23,1.346,1.3474,1.3455
2014-07-24,1.3463,1.3485,1.3438
2014-07-25,1.3432,1.3476,1.3422
2014-07-28,1.3433,1.3444,1.3427
2014-07-29,1.341,1.3445,1.3404
2014-07-30,1.3393,1.3415,1.3367
2014-07-31,1.3388,1.3401,1.3372
2014-08-01,1.3423,1.3445,1.3379
2014-08-04,1.342,1.3433,1.341
2014-08-05,1.3375,1.3425,1.3358
2014-08-06,1.3379,1.3387,1.3333
2014-08-07,1.3364,1.3394,1.3337
2014-08-08,1.3412,1.3433,1.3344
2014-08-11,1.3384,1.3412,1.338
2014-08-12,1.3367,1.3387,1.3336
2014-08-13,1.3368,1.3415,1.3342
2014-08-14,1.3369,1.3408,1.3349
2014-08-15,1.3392,1.3412,1.3359
2014-08-18,1.3361,1.34,1.3353
2014-08-19,1.3321,1.3363,1.3313
2014-08-20,1.3263,1.3326,1.3256
2014-08-21,1.328,1.329,1.3242
2014-08-22,1.3244,1.3297,1.3221
2014-08-25,1.3194,1.3223,1.3184
2014-08-26,1.3176,1.3215,1.3165
2014-08-27,1.3197,1.321,1.3153
2014-08-28,1.3184,1.3221,1.316
2014-08-29,1.3139,1.3196,1.3134
2014-09-01,1.3136,1.3146,1.3119
2014-09-02,1.3133,1.3137,1.311
2014-09-03,1.3145,1.316,1.3122
2014-09-04,1.2945,1.3154,1.292
2014-09-05,1.2952,1.2988,1.2922
2014-09-08,1.2899,1.296,1.2882
2014-09-09,1.2943,1.295,1.2859
2014-09-10,1.2908,1.2963,1.2884
2014-09-11,1.2917,1.2952,1.2897
2014-09-12,1.2949,1.2979,1.2909
2014-09-15,1.2939,1.2979,1.2909
2014-09-16,1.2962,1.2995,1.2922
2014-09-17,1.2879,1.2981,1.2875
2014-09-18,1.2918,1.293,1.2834
2014-09-19,1.2836,1.2929,1.283
2014-09-22,1.2844,1.2868,1.2816
2014-09-23,1.2857,1.2901,1.2843
2014-09-24,1.2786,1.2864,1.2774
2014-09-25,1.2749,1.2783,1.2698
2014-09-26,1.2681,1.2761,1.2677
2014-09-29,1.269,1.2715,1.2664
2014-09-30,1.2629,1.2702,1.2571
2014-10-01,1.2615,1.264,1.2584
2014-10-02,1.2669,1.2699,1.2614
2014-10-03,1.251,1.2672,1.25
2014-10-06,1.2645,1.2675,1.2509
2014-10-07,1.2678,1.2682,1.2584
2014-10-08,1.2721,1.2749,1.2623
2014-10-09,1.2681,1.2792,1.2664
2014-10-10,1.2613,1.2716,1.2609
2014-10-13,1.2693,1.2699,1.2621
2014-10-14,1.2657,1.2749,1.264
2014-10-15,1.2802,1.2887,1.2625
2014-10-16,1.2796,1.2845,1.2706
2014-10-17,1.2761,1.2837,1.2744
2014-10-20,1.2808,1.2817,1.2732
2014-10-21,1.2722,1.284,1.2716
2014-10-22,1.2642,1.274,1.2637
2014-10-23,1.265,1.2677,1.2614
2014-10-24,1.2668,1.2696,1.2635
2014-10-27,1.2706,1.2723,1.2666
2014-10-28,1.2736,1.2765,1.2685
2014-10-29,1.2644,1.2771,1.2633
2014-10-30,1.2613,1.2639,1.2548
2014-10-31,1.253,1.2616,1.2486
2014-11-03,1.2489,1.2514,1.244
2014-11-04,1.2549,1.2577,1.2482
2014-11-05,1.248,1.2567,1.2458
2014-11-06,1.2378,1.2533,1.2376
2014-11-07,1.2453,1.247,1.2358
2014-11-10,1.242,1.251,1.2419
2014-11-11,1.2479,1.2499,1.2395
2014-11-12,1.2431,1.2498,1.242
2014-11-13,1.2482,1.2492,1.2427
2014-11-14,1.2525,1.2546,1.2399
2014-11-17,1.2452,1.2578,1.2445
2014-11-18,1.2534,1.2545,1.2444
2014-11-19,1.2538,1.26,1.2512
2014-11-20,1.2545,1.2575,1.2505
2014-11-21,1.2387,1.2568,1.2375
2014-11-24,1.2439,1.2445,1.2361
2014-11-25,1.2477,1.2487,1.2402
2014-11-26,1.2508,1.2532,1.2444
2014-11-27,1.2474,1.2524,1.2465
2014-11-28,1.2441,1.249,1.2427
2014-12-01,1.2475,1.2507,1.242
2014-12-02,1.2379,1.2483,1.2377
2014-12-03,1.2313,1.2391,1.2301
2014-12-04,1.2378,1.2456,1.2283
2014-12-05,1.2289,1.2393,1.2271
2014-12-08,1.2318,1.2344,1.2247
2014-12-09,1.2367,1.2448,1.2292
2014-12-10,1.2443,1.2447,1.2362
2014-12-11,1.2385,1.2495,1.237
2014-12-12,1.2458,1.2485,1.2385
2014-12-15,1.2441,1.2483,1.2415
2014-12-16,1.25,1.257,1.2434
2014-12-17,1.2343,1.2516,1.2321
2014-12-18,1.2283,1.2353,1.2266
2014-12-19,1.2225,1.2302,1.222
2014-12-22,1.2218,1.2273,1.2217
2014-12-23,1.2175,1.2246,1.2165
2014-12-24,1.2193,1.222,1.2169
2014-12-25,1.2239,1.2245,1.2188
2014-12-26,1.2178,1.2226,1.2169
2014-12-29,1.2153,1.2221,1.2143
2014-12-30,1.2153,1.2187,1.2124
2014-12-31,1.2098,1.217,1.2097
2015-01-01,1.2097,1.21,1.2099
2015-01-02,1.2004,1.2108,1.2002
2015-01-05,1.1938,1.2005,1.1868
2015-01-06,1.1899,1.1969,1.1884
2015-01-07,1.1832,1.1897,1.1802
2015-01-08,1.1789,1.1848,1.1755
2015-01-09,1.1842,1.1846,1.1763
2015-01-12,1.184,1.1871,1.1787
2015-01-13,1.1771,1.186,1.1753
2015-01-14,1.1789,1.1846,1.1728
2015-01-15,1.1616,1.1793,1.1568
2015-01-16,1.1567,1.165,1.146
2015-01-19,1.1604,1.164,1.1548
2015-01-20,1.1549,1.1615,1.1541
2015-01-21,1.1596,1.168,1.1542
2015-01-22,1.1339,1.1651,1.1335
2015-01-23,1.1221,1.1374,1.1115
2015-01-26,1.1265,1.1296,1.1098
2015-01-27,1.1368,1.1423,1.1224
2015-01-28,1.1291,1.1383,1.1282
2015-01-29,1.1316,1.1368,1.1262
2015-01-30,1.1303,1.1364,1.1279
2015-02-02,1.134,1.1362,1.1291
2015-02-03,1.1484,1.1534,1.1313
2015-02-04,1.1397,1.1487,1.1382
2015-02-05,1.1476,1.1499,1.1304
2015-02-06,1.1322,1.1486,1.1312
2015-02-09,1.132,1.136,1.127
2015-02-10,1.1318,1.1345,1.1273
2015-02-11,1.1302,1.1332,1.128
2015-02-12,1.141,1.1423,1.1302
2015-02-13,1.1398,1.1443,1.138
2015-02-16,1.1404,1.143,1.13895
2015-02-17,1.14162,1.1449,1.13221
2015-02-18,1.14009,1.14161,1.1334
2015-02-19,1.13619,1.14501,1.13556
2015-02-20,1.1375,1.14298,1.12792
2015-02-23,1.13325,1.1412,1.12954
2015-02-24,1.13411,1.13581,1.12885
2015-02-25,1.13611,1.139,1.13359
2015-02-26,1.11959,1.138,1.11839
2015-02-27,1.11868,1.12451,1.1176
2015-03-02,1.1182,1.1241,1.116
2015-03-03,1.11763,1.12175,1.11543
2015-03-04,1.1074,1.11866,1.10617
2015-03-05,1.10268,1.11143,1.09876
2015-03-06,1.08496,1.10327,1.08419
2015-03-09,1.08616,1.09065,1.08228
2015-03-10,1.0697,1.08559,1.06928
2015-03-11,1.05407,1.0717,1.0511
2015-03-12,1.06078,1.06837,1.04944
2015-03-13,1.04763,1.06346,1.04625
2015-03-16,1.0577,1.0619,1.0459
2015-03-17,1.05915,1.06508,1.05515
2015-03-18,1.08876,1.104,1.05803
2015-03-19,1.0638,1.092,1.0613
2015-03-20,1.0804,1.08823,1.06557
2015-03-23,1.09623,1.09633,1.07677
2015-03-24,1.09241,1.10292,1.089
2015-03-25,1.0962,1.1015,1.0901
2015-03-26,1.08894,1.10522,1.08566
2015-03-27,1.08962,1.09487,1.08014
2015-03-30,1.08124,1.0896,1.08097
2015-03-31,1.07468,1.08455,1.07133
2015-04-01,1.07589,1.08001,1.07188
2015-04-02,1.0883,1.09054,1.07503
2015-04-03,1.0995,1.1027,1.0864
2015-04-06,1.09224,1.10356,1.091
2015-04-07,1.0822,1.09548,1.08148
2015-04-08,1.07867,1.08875,1.07634
2015-04-09,1.06476,1.079,1.06378
2015-04-10,1.06013,1.06837,1.0568
2015-04-13,1.05751,1.06198,1.052
2015-04-14,1.06524,1.07073,1.05316
2015-04-15,1.06771,1.0702,1.05708
2015-04-16,1.07745,1.08177,1.06246
2015-04-17,1.082,1.08483,1.07348
2015-04-20,1.07358,1.0829,1.07114
2015-04-21,1.0734,1.0781,1.0659
2015-04-22,1.0728,1.0801,1.0706
2015-04-23,1.0826,1.0845,1.06666
2015-04-24,1.0862,1.0902,1.0783
2015-04-27,1.08805,1.0927,1.0818
2015-04-28,1.0968,1.09911,1.08602
2015-04-29,1.1108,1.11878,1.09597
2015-04-30,1.123,1.12661,1.10715
2015-05-01,1.1211,1.129,1.1175
2015-05-04,1.11466,1.12244,1.1123
2015-05-05,1.11948,1.1223,1.10665
2015-05-06,1.1346,1.13702,1.11751
2015-05-07,1.1266,1.13917,1.12375
2015-05-08,1.12065,1.1289,1.11796
2015-05-11,1.11568,1.12064,1.11311
2015-05-12,1.1216,1.1279,1.1135
2015-05-13,1.13477,1.13827,1.12027
2015-05-14,1.1402,1.14447,1.13409
2015-05-15,1.14459,1.1467,1.13238
2015-05-18,1.13094,1.1449,1.1299
2015-05-19,1.11537,1.1327,1.1119
2015-05-20,1.1108,1.11521,1.1062
2015-05-21,1.11221,1.11814,1.10798
2015-05-22,1.10121,1.12081,1.10024
2015-05-25,1.0978,1.101,1.09591
2015-05-26,1.0875,1.09808,1.08635
2015-05-27,1.0902,1.093,1.08195
2015-05-28,1.09398,1.0959,1.08675
2015-05-29,1.09813,1.10062,1.0926
2015-06-01,1.09259,1.099,1.08872
2015-06-02,1.11518,1.1194,1.0916
2015-06-03,1.12683,1.1285,1.108
2015-06-04,1.1243,1.138,1.1223
2015-06-05,1.111,1.12801,1.10499
2015-06-08,1.12822,1.12944,1.10847
2015-06-09,1.1278,1.13453,1.12144
2015-06-10,1.132,1.1386,1.12601
2015-06-11,1.12595,1.13312,1.11824
2015-06-12,1.1252,1.12963,1.11517
2015-06-15,1.1285,1.12944,1.11895
2015-06-16,1.1247,1.13297,1.12052
2015-06-17,1.1335,1.1358,1.1207
2015-06-18,1.1372,1.14361,1.1331
2015-06-19,1.13434,1.14,1.12925
2015-06-22,1.1322,1.14102,1.1312
2015-06-23,1.1162,1.13472,1.1135
2015-06-24,1.1203,1.1235,1.116
2015-06-25,1.12,1.12277,1.1154
2015-06-26,1.1169,1.12196,1.11301
2015-06-29,1.1229,1.1277,1.09549
2015-06-30,1.1144,1.1244,1.11126
2015-07-01,1.1048,1.11712,1.1043
2015-07-02,1.10873,1.11211,1.10326
2015-07-03,1.1067,1.11178,1.10672
2015-07-06,1.1049,1.10952,1.09704
2015-07-07,1.1024,1.1056,1.0917
2015-07-08,1.10683,1.10927,1.09745
2015-07-09,1.1025,1.11248,1.0992
2015-07-10,1.11451,1.1216,1.10453
2015-07-13,1.1011,1.11967,1.09959
2015-07-14,1.1003,1.1084,1.09658
2015-07-15,1.0942,1.10355,1.09301
2015-07-16,1.0875,1.09625,1.08558
2015-07-17,1.0849,1.0907,1.0841
2015-07-20,1.0824,1.087,1.08092
2015-07-21,1.0935,1.09691,1.0812
2015-07-22,1.09138,1.09665,1.08695
2015-07-23,1.0998,1.10177,1.0922
2015-07-24,1.0978,1.09958,1.09255
2015-07-27,1.1094,1.11291,1.09695
2015-07-28,1.1055,1.10994,1.10223
2015-07-29,1.0981,1.1084,1.09672
2015-07-30,1.0927,1.09894,1.08938
2015-07-31,1.0986,1.1114,1.0921
2015-08-03,1.0947,1.09959,1.09414
2015-08-04,1.0888,1.09874,1.0883
2015-08-05,1.0902,1.09369,1.0848
2015-08-06,1.09316,1.09436,1.08736
2015-08-07,1.0963,1.09781,1.0856
2015-08-10,1.1014,1.10413,1.09255
2015-08-11,1.1034,1.10882,1.09608
2015-08-12,1.1165,1.1214,1.10247
2015-08-13,1.1146,1.1189,1.10802
2015-08-14,1.1104,1.1189,1.1098
2015-08-17,1.10809,1.1125,1.1059
2015-08-18,1.1033,1.10934,1.10175
2015-08-19,1.1127,1.1134,1.1018
2015-08-20,1.12022,1.12203,1.11072
2015-08-21,1.136,1.13762,1.123
2015-08-24,1.158,1.17136,1.137
2015-08-25,1.1467,1.16041,1.1397
2015-08-26,1.13232,1.1561,1.13226
2015-08-27,1.12626,1.13641,1.12034
2015-08-28,1.11831,1.131,1.11564
2015-08-31,1.1229,1.12624,1.11635
2015-09-01,1.1298,1.1332,1.12091
2015-09-02,1.1222,1.13102,1.1223
2015-09-03,1.1123,1.12431,1.10877
2015-09-04,1.1138,1.119,1.109
2015-09-07,1.1169,1.11775,1.1122
2015-09-08,1.1205,1.12293,1.11528
2015-09-09,1.1202,1.1217,1.1132
2015-09-10,1.1283,1.1295,1.11718
2015-09-11,1.1336,1.13493,1.12546
2015-09-14,1.13132,1.1373,1.12837
2015-09-15,1.1267,1.13284,1.1259
2015-09-16,1.1278,1.13204,1.12142
2015-09-17,1.142,1.1423,1.1285
2015-09-18,1.1301,1.14602,1.12868
2015-09-21,1.1194,1.133,1.11816
2015-09-22,1.113,1.12073,1.11137
2015-09-23,1.1182,1.12132,1.11057
2015-09-24,1.1225,1.1296,1.1165
2015-09-25,1.11968,1.12131,1.11167
2015-09-28,1.1234,1.12475,1.11469
2015-09-29,1.12619,1.1281,1.11942
2015-09-30,1.1165,1.12613,1.11576
2015-10-01,1.11844,1.1209,1.11352
2015-10-02,1.12038,1.13183,1.11506
2015-10-05,1.1184,1.12892,1.11735
2015-10-06,1.12685,1.1276,1.11724
2015-10-07,1.1247,1.1284,1.1212
2015-10-08,1.1274,1.1328,1.1235
2015-10-09,1.13551,1.13873,1.12675
2015-10-12,1.13654,1.13967,1.1355
2015-10-13,1.13862,1.14109,1.13445
2015-10-14,1.1485,1.1489,1.13798
2015-10-15,1.13771,1.14951,1.13635
2015-10-16,1.13564,1.13949,1.13346
2015-10-19,1.13229,1.1379,1.1306
2015-10-20,1.13448,1.1387,1.13242
2015-10-21,1.134,1.13775,1.13344
2015-10-22,1.11169,1.1351,1.11084
2015-10-23,1.0998,1.11397,1.09967
2015-10-26,1.105,1.10681,1.0994
2015-10-27,1.10384,1.10785,1.10307
2015-10-28,1.09182,1.10956,1.0897
2015-10-29,1.09806,1.09852,1.09022
2015-10-30,1.0996,1.10723,1.09659
2015-11-02,1.1008,1.10526,1.10003
2015-11-03,1.0965,1.103,1.09362
2015-11-04,1.0862,1.09676,1.08446
2015-11-05,1.0881,1.08973,1.08339
2015-11-06,1.0741,1.0894,1.0706
2015-11-09,1.0758,1.079,1.072
2015-11-10,1.07134,1.0764,1.06746
2015-11-11,1.074,1.07738,1.07058
2015-11-12,1.0811,1.083,1.06914
2015-11-13,1.07436,1.0817,1.07144
2015-11-16,1.06823,1.0758,1.06749
2015-11-17,1.0648,1.06909,1.06308
2015-11-18,1.06542,1.06925,1.06175
2015-11-19,1.0733,1.0763,1.06559
2015-11-20,1.0647,1.0738,1.0641
2015-11-23,1.06271,1.06565,1.05927
2015-11-24,1.0646,1.06732,1.062
2015-11-25,1.06181,1.06891,1.05662
2015-11-26,1.0606,1.0628,1.06002
2015-11-27,1.05955,1.0638,1.05687
2015-11-30,1.05697,1.05948,1.0558
2015-12-01,1.0632,1.0637,1.05637
2015-12-02,1.062,1.06359,1.0551
2015-12-03,1.09557,1.09811,1.05236
2015-12-04,1.08699,1.09562,1.08364
2015-12-07,1.0847,1.08871,1.07963
2015-12-08,1.0888,1.09026,1.08306
2015-12-09,1.10291,1.10427,1.08795
2015-12-10,1.0937,1.1025,1.09256
2015-12-11,1.0991,1.10305,1.09269
2015-12-14,1.0996,1.10487,1.09459
2015-12-15,1.09137,1.10594,1.09049
2015-12-16,1.09165,1.10119,1.0888
2015-12-17,1.0804,1.09138,1.08029
2015-12-18,1.08661,1.08743,1.08052
2015-12-21,1.09248,1.09388,1.08485
2015-12-22,1.0954,1.0984,1.09027
2015-12-23,1.0922,1.09566,1.08702
2015-12-24,1.0952,1.0967,1.09049
2015-12-25,1.0963,1.09732,1.09438
2015-12-28,1.0972,1.09924,1.0954
2015-12-29,1.09324,1.09914,1.08994
2015-12-30,1.0931,1.09435,1.09024
2015-12-31,1.0864,1.0937,1.0852
2016-01-01,1.0864,1.0937,1.0852
2016-01-04,1.08311,1.09463,1.07814
2016-01-05,1.0744,1.08387,1.0711
2016-01-06,1.0786,1.07992,1.07156
2016-01-07,1.09258,1.09401,1.07715
2016-01-08,1.09172,1.09331,1.08036
2016-01-11,1.086,1.09697,1.0848
2016-01-12,1.08461,1.09001,1.08199
2016-01-13,1.0872,1.0884,1.0805
2016-01-14,1.0857,1.09432,1.0835
2016-01-15,1.0913,1.09845,1.0855
2016-01-18,1.0889,1.0936,1.0869
2016-01-19,1.09134,1.0939,1.08597
2016-01-20,1.08801,1.09757,1.08776
2016-01-21,1.0883,1.0921,1.0778
2016-01-22,1.0793,1.0876,1.079
2016-01-25,1.0852,1.08539,1.079
2016-01-26,1.08553,1.08742,1.0819
2016-01-27,1.08969,1.09163,1.08511
2016-01-28,1.09502,1.09675,1.087
2016-01-29,1.0831,1.09485,1.08102
2016-02-01,1.08929,1.09127,1.0815
2016-02-02,1.09177,1.094,1.08857
2016-02-03,1.1105,1.11454,1.09039
2016-02-04,1.12,1.12392,1.10698
2016-02-05,1.11452,1.12504,1.11091
2016-02-08,1.12042,1.12158,1.10867
2016-02-09,1.1287,1.13378,1.11626
2016-02-10,1.1291,1.13113,1.11607
2016-02-11,1.1331,1.13764,1.12745
2016-02-12,1.12542,1.13338,1.12143
2016-02-15,1.11446,1.125,1.11282
2016-02-16,1.11415,1.1193,1.11245
2016-02-17,1.11437,1.1179,1.11064
2016-02-18,1.11023,1.11495,1.10712
2016-02-19,1.1126,1.11391,1.10668
2016-02-22,1.10297,1.1127,1.10034
2016-02-23,1.10169,1.10526,1.09904
2016-02-24,1.10092,1.10462,1.09575
2016-02-25,1.1036,1.10496,1.09868
2016-02-26,1.0938,1.10681,1.0912
2016-02-29,1.08858,1.09624,1.08595
2016-03-01,1.08709,1.08937,1.08345
2016-03-02,1.0866,1.08808,1.08259
2016-03-03,1.0964,1.09725,1.08539
2016-03-04,1.09938,1.10432,1.09038
2016-03-07,1.1009,1.1026,1.09403
2016-03-08,1.10069,1.10576,1.09937
2016-03-09,1.10064,1.1035,1.09464
2016-03-10,1.11849,1.12179,1.08224
2016-03-11,1.11529,1.12095,1.10807
2016-03-14,1.1097,1.11757,1.10781
2016-03-15,1.111,1.1125,1.10723
2016-03-16,1.12248,1.12423,1.10581
2016-03-17,1.1316,1.13423,1.12055
2016-03-18,1.12681,1.1337,1.12565
2016-03-21,1.12494,1.1285,1.12347
2016-03-22,1.1219,1.1261,1.11888
2016-03-23,1.1181,1.12233,1.11598
2016-03-24,1.11753,1.11874,1.11443
2016-03-25,1.1162,1.11792,1.11545
2016-03-28,1.11999,1.12198,1.1153
2016-03-29,1.1302,1.1303,1.11691
2016-03-30,1.13369,1.13653,1.1286
2016-03-31,1.13845,1.14116,1.13107
2016-04-01,1.1394,1.14377,1.13347
2016-04-04,1.1396,1.14125,1.13576
2016-04-05,1.1381,1.14051,1.13361
2016-04-06,1.1405,1.14315,1.13268
2016-04-07,1.13724,1.14539,1.13379
2016-04-08,1.13996,1.14192,1.1349
2016-04-11,1.14057,1.14472,1.13725
2016-04-12,1.1393,1.14646,1.13455
2016-04-13,1.12864,1.1391,1.12726
2016-04-14,1.1262,1.12947,1.1234
2016-04-15,1.1285,1.13169,1.12458
2016-04-18,1.13142,1.13322,1.1274
2016-04-19,1.1368,1.13845,1.13038
2016-04-20,1.1298,1.13878,1.12911
2016-04-21,1.1293,1.13972,1.12704
2016-04-22,1.1229,1.13084,1.12185
2016-04-25,1.12626,1.12781,1.12189
2016-04-26,1.12817,1.13396,1.12565
2016-04-27,1.13125,1.13604,1.12721
2016-04-28,1.1352,1.13679,1.1296
2016-04-29,1.14465,1.14591,1.13484
2016-05-02,1.15182,1.15349,1.14486
2016-05-03,1.15055,1.16162,1.15013
2016-05-04,1.1493,1.15293,1.14666
2016-05-05,1.1401,1.1494,1.13862
2016-05-06,1.14018,1.14802,1.13871
2016-05-09,1.13847,1.14196,1.13757
2016-05-10,1.13691,1.14097,1.13586
2016-05-11,1.14234,1.1447,1.13699
2016-05-12,1.1371,1.1429,1.13722
2016-05-13,1.13188,1.13796,1.12832
2016-05-16,1.13195,1.13422,1.13027
2016-05-17,1.1319,1.13482,1.13024
2016-05-18,1.12195,1.13159,1.12196
2016-05-19,1.1202,1.123,1.11803
2016-05-20,1.1214,1.12372,1.11967
2016-05-23,1.12146,1.1243,1.11878
2016-05-24,1.11403,1.12269,1.1133
2016-05-25,1.11604,1.1167,1.11292
2016-05-26,1.11901,1.1217,1.11501
2016-05-27,1.1113,1.12006,1.11119
2016-05-30,1.1134,1.1145,1.10983
2016-05-31,1.11338,1.11732,1.11224
2016-06-01,1.11923,1.1193,1.11143
2016-06-02,1.1147,1.12198,1.11457
2016-06-03,1.13518,1.1354,1.11367
2016-06-06,1.13656,1.13928,1.1327
2016-06-07,1.1359,1.13804,1.13388
2016-06-08,1.13943,1.14105,1.13548
2016-06-09,1.1329,1.14153,1.13057
2016-06-10,1.1261,1.13213,1.12456
2016-06-13,1.1289,1.1303,1.12325
2016-06-14,1.1207,1.12984,1.11892
2016-06-15,1.1265,1.12985,1.11899
2016-06-16,1.123,1.1295,1.11312
2016-06-17,1.12802,1.12963,1.12229
2016-06-20,1.1306,1.13824,1.1286
2016-06-21,1.1249,1.13494,1.12434
2016-06-22,1.1304,1.13375,1.12366
2016-06-23,1.13449,1.1421,1.1317
2016-06-24,1.11219,1.14239,1.09118
2016-06-27,1.10132,1.10836,1.09711
2016-06-28,1.1057,1.11115,1.10106
2016-06-29,1.1107,1.11304,1.10495
2016-06-30,1.1087,1.11543,1.10243
2016-07-01,1.1131,1.11693,1.10723
2016-07-04,1.1142,1.1148,1.1098
2016-07-05,1.1068,1.11864,1.10662
2016-07-06,1.11048,1.11114,1.10293
2016-07-07,1.1054,1.11073,1.10528
2016-07-08,1.10553,1.11192,1.10019
2016-07-11,1.10617,1.10745,1.10159
2016-07-12,1.10639,1.11259,1.10526
2016-07-13,1.1097,1.11197,1.10424
2016-07-14,1.11221,1.11647,1.10887
2016-07-15,1.10698,1.11488,1.10532
2016-07-18,1.10716,1.10842,1.10377
2016-07-19,1.10175,1.10804,1.10002
2016-07-20,1.10173,1.10301,1.09816
2016-07-21,1.10184,1.10593,1.09798
2016-07-22,1.09726,1.10411,1.09558
2016-07-25,1.09903,1.09987,1.09522
2016-07-26,1.09904,1.10295,1.09785
2016-07-27,1.10483,1.10648,1.09619
2016-07-28,1.10726,1.112,1.10527
2016-07-29,1.11836,1.11974,1.10732
2016-08-01,1.11614,1.11833,1.11555
2016-08-02,1.12245,1.12336,1.11625
2016-08-03,1.1147,1.12228,1.11409
2016-08-04,1.11279,1.11563,1.11139
2016-08-05,1.10874,1.11613,1.10458
2016-08-08,1.10826,1.11048,1.10724
2016-08-09,1.11111,1.11224,1.10709
2016-08-10,1.11741,1.119,1.1114
2016-08-11,1.11439,1.11913,1.11362
2016-08-12,1.11594,1.12213,1.11316
2016-08-15,1.1184,1.12035,1.11535
2016-08-16,1.12753,1.13224,1.11778
2016-08-17,1.12814,1.1316,1.12417
2016-08-18,1.13541,1.13573,1.12877
2016-08-19,1.13276,1.13601,1.13044
2016-08-22,1.1323,1.13306,1.12714
2016-08-23,1.1307,1.13551,1.13041
2016-08-24,1.12634,1.13115,1.12455
2016-08-25,1.12822,1.12976,1.12595
2016-08-26,1.11985,1.13406,1.11808
2016-08-29,1.11867,1.1208,1.11584
2016-08-30,1.11403,1.11922,1.11324
2016-08-31,1.11588,1.11653,1.11236
2016-09-01,1.11972,1.1205,1.11277
2016-09-02,1.11602,1.12521,1.11506
2016-09-05,1.11467,1.1183,1.11396
2016-09-06,1.1257,1.12629,1.11411
2016-09-07,1.1244,1.12717,1.1229
2016-09-08,1.1254,1.13273,1.12346
2016-09-09,1.12268,1.1285,1.11984
2016-09-12,1.1234,1.12683,1.12105
2016-09-13,1.12125,1.12603,1.12041
2016-09-14,1.12471,1.1274,1.12138
2016-09-15,1.12426,1.1284,1.12194
2016-09-16,1.11532,1.12501,1.11496
2016-09-19,1.11791,1.11977,1.11508
2016-09-20,1.11565,1.12135,1.11554
2016-09-21,1.11827,1.11966,1.1123
2016-09-22,1.1202,1.12573,1.118
2016-09-23,1.12321,1.12404,1.1194
2016-09-26,1.12572,1.1279,1.12215
2016-09-27,1.12183,1.12589,1.11912
2016-09-28,1.12113,1.12368,1.11821
2016-09-29,1.12172,1.12498,1.11972
2016-09-30,1.12332,1.12506,1.11535
2016-10-03,1.12146,1.12436,1.12054
2016-10-04,1.11976,1.12387,1.11382
2016-10-05,1.12112,1.12332,1.11897
2016-10-06,1.1144,1.12123,1.114
2016-10-07,1.1191,1.1205,1.11047
2016-10-10,1.1133,1.1203,1.11336
2016-10-11,1.1054,1.11421,1.10492
2016-10-12,1.1014,1.10676,1.10047
2016-10-13,1.1049,1.10556,1.09857
2016-10-14,1.0981,1.10577,1.09781
2016-10-17,1.10001,1.1008,1.09643
2016-10-18,1.09804,1.10262,1.09704
2016-10-19,1.09687,1.10046,1.0955
2016-10-20,1.09266,1.10393,1.09161
2016-10-21,1.08724,1.093,1.08597
2016-10-24,1.08743,1.08994,1.08598
2016-10-25,1.08881,1.09048,1.08513
2016-10-26,1.09064,1.09463,1.08748
2016-10-27,1.09015,1.0942,1.08828
2016-10-28,1.0976,1.09917,1.08935
2016-10-31,1.09763,1.09916,1.09359
2016-11-01,1.10579,1.1069,1.09603
2016-11-02,1.1088,1.1123,1.10499
2016-11-03,1.11097,1.11257,1.106
2016-11-04,1.11222,1.1127,1.10803
2016-11-07,1.10461,1.11162,1.10275
2016-11-08,1.10234,1.1067,1.10091
2016-11-09,1.09225,1.12993,1.09203
2016-11-10,1.08913,1.09535,1.08652
2016-11-11,1.08434,1.09232,1.08306
2016-11-14,1.0739,1.08413,1.07094
2016-11-15,1.07187,1.08164,1.07145
2016-11-16,1.0681,1.07594,1.06665
2016-11-17,1.06223,1.07454,1.06205
2016-11-18,1.05934,1.06429,1.05694
2016-11-21,1.06182,1.06491,1.05792
2016-11-22,1.06252,1.06578,1.05839
2016-11-23,1.05546,1.06434,1.05264
2016-11-24,1.05691,1.05853,1.05184
2016-11-25,1.05922,1.06275,1.05388
2016-11-28,1.0596,1.06854,1.05637
2016-11-29,1.06418,1.06495,1.05652
2016-11-30,1.05986,1.06665,1.05529
2016-12-01,1.06482,1.06595,1.05848
2016-12-02,1.06639,1.06902,1.06254
2016-12-05,1.07604,1.0768,1.05063
2016-12-06,1.07151,1.07854,1.06987
2016-12-07,1.0764,1.07683,1.07102
2016-12-08,1.06181,1.08736,1.05975
2016-12-09,1.0551,1.06296,1.05312
2016-12-12,1.06336,1.06516,1.05257
2016-12-13,1.0622,1.06671,1.0604
2016-12-14,1.05213,1.06698,1.05212
2016-12-15,1.0415,1.05393,1.03667
2016-12-16,1.0434,1.04741,1.04007
2016-12-19,1.04033,1.04794,1.03953
2016-12-20,1.03872,1.04178,1.03525
2016-12-21,1.04285,1.04511,1.03828
2016-12-22,1.04356,1.04994,1.04242
2016-12-23,1.04513,1.0469,1.0427
2016-12-26,1.04492,1.0468,1.04419
2016-12-27,1.0455,1.04633,1.04329
2016-12-28,1.0413,1.04796,1.03725
2016-12-29,1.04851,1.0494,1.04093
2016-12-30,1.05316,1.06524,1.04849
2017-01-02,1.04679,1.0537,1.0462
2017-01-03,1.04134,1.049,1.03406
2017-01-04,1.04657,1.04997,1.03903
2017-01-05,1.0589,1.06151,1.04811
2017-01-06,1.05315,1.06226,1.05253
2017-01-09,1.05649,1.05829,1.05111
2017-01-10,1.05582,1.06271,1.0551
2017-01-11,1.0575,1.06231,1.04538
2017-01-12,1.06171,1.06846,1.0572
2017-01-13,1.06455,1.06743,1.05965
2017-01-16,1.05967,1.06358,1.05793
2017-01-17,1.0704,1.07193,1.0598
2017-01-18,1.06397,1.07153,1.06304
2017-01-19,1.06591,1.06766,1.05894
2017-01-20,1.06907,1.07095,1.0625
2017-01-23,1.07472,1.0755,1.06967
2017-01-24,1.07274,1.07748,1.07205
2017-01-25,1.07494,1.07697,1.07114
2017-01-26,1.06914,1.07655,1.06579
2017-01-27,1.06977,1.07251,1.06586
2017-01-30,1.0694,1.07401,1.06205
2017-01-31,1.07947,1.08123,1.06848
2017-02-01,1.07712,1.08074,1.07323
2017-02-02,1.0759,1.08287,1.07561
2017-02-03,1.07743,1.07976,1.07121
2017-02-06,1.07494,1.07986,1.0706
2017-02-07,1.06946,1.075,1.06563
2017-02-08,1.06874,1.07141,1.06407
2017-02-09,1.0659,1.07095,1.06511
2017-02-10,1.06321,1.0668,1.06079
2017-02-13,1.05993,1.06584,1.05921
2017-02-14,1.05732,1.06334,1.0561
2017-02-15,1.0599,1.06092,1.05217
2017-02-16,1.06729,1.06792,1.05909
2017-02-17,1.06077,1.06764,1.06056
2017-02-20,1.06177,1.0633,1.06032
2017-02-21,1.05467,1.0616,1.05259
2017-02-22,1.05705,1.05724,1.04937
2017-02-23,1.0578,1.05954,1.05377
2017-02-24,1.05577,1.06178,1.05574
2017-02-27,1.05867,1.06307,1.05518
2017-02-28,1.05907,1.063,1.05688
2017-03-01,1.05514,1.05891,1.05146
2017-03-02,1.05052,1.0551,1.04951
2017-03-03,1.06121,1.0614,1.05026
2017-03-06,1.05839,1.06401,1.05748
2017-03-07,1.05667,1.06025,1.05584
2017-03-08,1.05442,1.0574,1.05351
2017-03-09,1.05897,1.06153,1.05253
2017-03-10,1.06934,1.06991,1.05728
2017-03-13,1.0654,1.07143,1.06534
2017-03-14,1.0611,1.06626,1.06044
2017-03-15,1.06947,1.07187,1.06047
2017-03-16,1.07593,1.07671,1.07057
2017-03-17,1.07415,1.07826,1.07277
2017-03-20,1.07394,1.07774,1.07254
2017-03-21,1.08084,1.08192,1.07195
2017-03-22,1.0795,1.08246,1.07762
2017-03-23,1.07831,1.08049,1.07681
2017-03-24,1.08142,1.0816,1.07605
2017-03-27,1.08655,1.09062,1.08192
2017-03-28,1.08049,1.08726,1.0799
2017-03-29,1.07601,1.08265,1.07401
2017-03-30,1.06824,1.0769,1.06814
2017-03-31,1.06729,1.07018,1.06703
2017-04-03,1.06648,1.0682,1.06424
2017-04-04,1.06684,1.06744,1.06359
2017-04-05,1.06733,1.0689,1.06356
2017-04-06,1.06456,1.0684,1.06291
2017-04-07,1.0591,1.06672,1.05808
2017-04-10,1.0591,1.06066,1.05698
2017-04-11,1.06063,1.06301,1.05788
2017-04-12,1.06415,1.06584,1.05889
2017-04-13,1.06147,1.06776,1.06092
2017-04-14,1.0623,1.063,1.06064
2017-04-17,1.06395,1.06704,1.06032
2017-04-18,1.07351,1.07357,1.06376
2017-04-19,1.07159,1.07371,1.06998
2017-04-20,1.07232,1.07775,1.07098
2017-04-21,1.06968,1.07381,1.06824
2017-04-24,1.08574,1.09339,1.08212
2017-04-25,1.0929,1.09501,1.08517
2017-04-26,1.08969,1.09508,1.08559
2017-04-27,1.0883,1.09329,1.08518
2017-04-28,1.08988,1.09474,1.08573
2017-05-01,1.09013,1.09238,1.08843
2017-05-02,1.09238,1.09303,1.08884
2017-05-03,1.08895,1.0937,1.08871
2017-05-04,1.09836,1.0984,1.08751
2017-05-05,1.09938,1.1,1.09499
2017-05-08,1.09318,1.10222,1.09163
2017-05-09,1.08703,1.0934,1.08635
2017-05-10,1.08662,1.08981,1.08535
2017-05-11,1.0862,1.0893,1.08392
2017-05-12,1.09234,1.09343,1.08556
2017-05-15,1.09791,1.09894,1.09229
2017-05-16,1.10904,1.10973,1.09772
2017-05-17,1.11459,1.11582,1.10812
2017-05-18,1.10997,1.1172,1.1076
2017-05-19,1.12033,1.12117,1.10991
2017-05-22,1.12334,1.12636,1.11617
2017-05-23,1.1188,1.12681,1.11823
2017-05-24,1.12107,1.12163,1.11688
2017-05-25,1.12131,1.12504,1.11938
2017-05-26,1.1175,1.12345,1.11608
2017-05-29,1.11799,1.119,1.11621
2017-05-30,1.11921,1.12054,1.11096
2017-05-31,1.12407,1.12523,1.11647
2017-06-01,1.12142,1.12567,1.12024
2017-06-02,1.12751,1.12825,1.12052
2017-06-05,1.12542,1.12841,1.12345
2017-06-06,1.12745,1.1284,1.12405
2017-06-07,1.12555,1.12827,1.12041
2017-06-08,1.12133,1.12692,1.11949
2017-06-09,1.11945,1.1216,1.11666
2017-06-12,1.1206,1.12321,1.11922
2017-06-13,1.1207,1.12248,1.11856
2017-06-14,1.11961,1.12957,1.11932
2017-06-15,1.11497,1.1229,1.11323
2017-06-16,1.11964,1.12,1.11387
2017-06-19,1.11471,1.12129,1.11433
2017-06-20,1.11272,1.1165,1.11191
2017-06-21,1.1165,1.11683,1.11275
2017-06-22,1.11528,1.11779,1.11396
2017-06-23,1.11983,1.1209,1.11455
2017-06-26,1.11793,1.12197,1.1172
2017-06-27,1.13478,1.1349,1.11792
2017-06-28,1.13785,1.13908,1.12919
2017-06-29,1.1437,1.1446,1.13748
2017-06-30,1.1418,1.14453,1.13921
2017-07-03,1.1361,1.1427,1.13552
2017-07-04,1.13505,1.1377,1.13362
2017-07-05,1.1339,1.13686,1.13126
2017-07-06,1.14197,1.14245,1.13299
2017-07-07,1.14062,1.14399,1.13798
2017-07-10,1.14012,1.14182,1.13818
2017-07-11,1.14688,1.14797,1.1383
2017-07-12,1.14201,1.14894,1.13919
2017-07-13,1.1404,1.1456,1.13705
2017-07-14,1.1466,1.1469,1.13917
2017-07-17,1.14774,1.1487,1.14349
2017-07-18,1.15582,1.15832,1.14718
2017-07-19,1.15164,1.15551,1.15101
2017-07-20,1.16271,1.16581,1.14794
2017-07-21,1.16748,1.16829,1.16193
2017-07-24,1.16437,1.16842,1.16259
2017-07-25,1.165,1.1714,1.163
2017-07-26,1.1727,1.1741,1.1611
2017-07-27,1.1673,1.1778,1.1649
2017-07-28,1.1754,1.1766,1.167
2017-07-31,1.1829,1.1837,1.1722
2017-08-01,1.18,1.1846,1.1784
2017-08-02,1.1859,1.1911,1.1792
2017-08-03,1.1865,1.1895,1.1829
2017-08-04,1.1771,1.1891,1.1728
2017-08-07,1.179,1.1815,1.177
2017-08-08,1.1754,1.1826,1.1714
2017-08-09,1.1757,1.1766,1.1688
2017-08-10,1.1772,1.1787,1.1703
2017-08-11,1.1825,1.1847,1.1748
2017-08-14,1.1783,1.184,1.1769
2017-08-15,1.1736,1.1794,1.1686
2017-08-16,1.1764,1.178,1.168
2017-08-17,1.1731,1.1792,1.1661
2017-08-18,1.1764,1.1776,1.1708
2017-08-21,1.1813,1.183,1.173
2017-08-22,1.1752,1.1826,1.1744
2017-08-23,1.1813,1.1824,1.1739
2017-08-24,1.1801,1.1819,1.1783
2017-08-25,1.1922,1.1943,1.1773
2017-08-28,1.1982,1.1985,1.1916
2017-08-29,1.1975,1.2071,1.1954
2017-08-30,1.189,1.1986,1.1882
2017-08-31,1.1901,1.1911,1.1822
2017-09-01,1.1865,1.1981,1.1849
